{
	"comment": "",
	"name": "Kinect",
	"pairId": "20130625_1",
	"timestamp": 1372165348145.1,
	"pos": [
		{
			"ts": 2016618,
			"x": 0.0538910999894142,
			"y": 0.276848673820496,
			"z": 1.44602167606354
		},
		{
			"ts": 2016650,
			"x": 0.0608236268162727,
			"y": 0.315693348646164,
			"z": 1.44265198707581
		},
		{
			"ts": 2016686,
			"x": 0.0567216351628304,
			"y": 0.263376712799072,
			"z": 1.46398484706879
		},
		{
			"ts": 2016718,
			"x": 0.0561363287270069,
			"y": 0.270051330327988,
			"z": 1.46665048599243
		},
		{
			"ts": 2016754,
			"x": 0.0545844212174416,
			"y": 0.352795034646988,
			"z": 1.49613785743713
		},
		{
			"ts": 2016786,
			"x": 0.0538799613714218,
			"y": 0.362052768468857,
			"z": 1.49924564361572
		},
		{
			"ts": 2016822,
			"x": 0.0523872338235378,
			"y": 0.364578068256378,
			"z": 1.50239431858063
		},
		{
			"ts": 2016854,
			"x": 0.0496691986918449,
			"y": 0.369098842144012,
			"z": 1.50663459300995
		},
		{
			"ts": 2016891,
			"x": 0.0464346036314964,
			"y": 0.320653110742569,
			"z": 1.50016450881958
		},
		{
			"ts": 2016922,
			"x": 0.0302756503224373,
			"y": 0.383109778165817,
			"z": 1.51459538936615
		},
		{
			"ts": 2016958,
			"x": 0.0287514179944992,
			"y": 0.383516430854797,
			"z": 1.51412558555603
		},
		{
			"ts": 2016990,
			"x": 0.0212654359638691,
			"y": 0.384037852287292,
			"z": 1.51263988018036
		},
		{
			"ts": 2017022,
			"x": 0.00454576592892408,
			"y": 0.373984336853027,
			"z": 1.50841176509857
		},
		{
			"ts": 2017058,
			"x": -0.00912466831505299,
			"y": 0.38079234957695,
			"z": 1.50831520557404
		},
		{
			"ts": 2017090,
			"x": -0.026791775599122,
			"y": 0.365369826555252,
			"z": 1.50266587734222
		},
		{
			"ts": 2017122,
			"x": -0.03653584420681,
			"y": 0.351345956325531,
			"z": 1.49619710445404
		},
		{
			"ts": 2017154,
			"x": -0.049497090280056,
			"y": 0.344368547201157,
			"z": 1.49259996414185
		},
		{
			"ts": 2017186,
			"x": -0.0674438402056694,
			"y": 0.342495501041412,
			"z": 1.49029159545898
		},
		{
			"ts": 2017222,
			"x": -0.106464400887489,
			"y": 0.367772668600082,
			"z": 1.49408364295959
		},
		{
			"ts": 2017254,
			"x": -0.0845695957541466,
			"y": 0.327072232961655,
			"z": 1.47509229183197
		},
		{
			"ts": 2017286,
			"x": -0.106566525995731,
			"y": 0.37115216255188,
			"z": 1.48471903800964
		},
		{
			"ts": 2017318,
			"x": -0.074735663831234,
			"y": 0.327109128236771,
			"z": 1.46283674240112
		},
		{
			"ts": 2017350,
			"x": -0.0746580734848976,
			"y": 0.329485088586807,
			"z": 1.46220088005066
		},
		{
			"ts": 2017382,
			"x": -0.0688079223036766,
			"y": 0.335148334503174,
			"z": 1.4587459564209
		},
		{
			"ts": 2017414,
			"x": -0.054343618452549,
			"y": 0.344404548406601,
			"z": 1.45258188247681
		},
		{
			"ts": 2017450,
			"x": -0.0377480797469616,
			"y": 0.385648012161255,
			"z": 1.44520223140717
		},
		{
			"ts": 2017482,
			"x": -0.0321557335555553,
			"y": 0.388268113136292,
			"z": 1.44257533550262
		},
		{
			"ts": 2017514,
			"x": -0.0145355369895697,
			"y": 0.390833526849747,
			"z": 1.43527805805206
		},
		{
			"ts": 2017550,
			"x": 0.00699727982282639,
			"y": 0.391687899827957,
			"z": 1.42806303501129
		},
		{
			"ts": 2017582,
			"x": 0.0294557902961969,
			"y": 0.390750288963318,
			"z": 1.42114591598511
		},
		{
			"ts": 2017614,
			"x": 0.0506012961268425,
			"y": 0.39141646027565,
			"z": 1.41589891910553
		},
		{
			"ts": 2017650,
			"x": 0.0780225992202759,
			"y": 0.395716398954391,
			"z": 1.41013240814209
		},
		{
			"ts": 2017682,
			"x": 0.0935519933700562,
			"y": 0.392552137374878,
			"z": 1.40776085853577
		},
		{
			"ts": 2017714,
			"x": 0.117063894867897,
			"y": 0.392082154750824,
			"z": 1.40366232395172
		},
		{
			"ts": 2017750,
			"x": 0.135798037052155,
			"y": 0.386862099170685,
			"z": 1.40034377574921
		},
		{
			"ts": 2017782,
			"x": 0.150574564933777,
			"y": 0.375885993242264,
			"z": 1.39964866638184
		},
		{
			"ts": 2017818,
			"x": 0.159370511770248,
			"y": 0.368433386087418,
			"z": 1.39985835552216
		},
		{
			"ts": 2017850,
			"x": 0.168933436274529,
			"y": 0.361406743526459,
			"z": 1.40007603168488
		},
		{
			"ts": 2017886,
			"x": 0.175910353660583,
			"y": 0.311739265918732,
			"z": 1.40435886383057
		},
		{
			"ts": 2017918,
			"x": 0.176421448588371,
			"y": 0.311075270175934,
			"z": 1.40457248687744
		},
		{
			"ts": 2017954,
			"x": 0.177026063203812,
			"y": 0.3087018430233,
			"z": 1.40565669536591
		},
		{
			"ts": 2017986,
			"x": 0.17761193215847,
			"y": 0.309318482875824,
			"z": 1.40684950351715
		},
		{
			"ts": 2018022,
			"x": 0.187914043664932,
			"y": 0.352194368839264,
			"z": 1.41278290748596
		},
		{
			"ts": 2018054,
			"x": 0.182486325502396,
			"y": 0.355387628078461,
			"z": 1.41575312614441
		},
		{
			"ts": 2018086,
			"x": 0.168918624520302,
			"y": 0.3639155626297,
			"z": 1.42169582843781
		},
		{
			"ts": 2018118,
			"x": 0.156694412231445,
			"y": 0.373625904321671,
			"z": 1.42493093013763
		},
		{
			"ts": 2018150,
			"x": 0.125309899449348,
			"y": 0.384269595146179,
			"z": 1.43225169181824
		},
		{
			"ts": 2018186,
			"x": 0.110388182103634,
			"y": 0.390959024429321,
			"z": 1.43575847148895
		},
		{
			"ts": 2018218,
			"x": 0.0825499892234802,
			"y": 0.412380367517471,
			"z": 1.44162726402283
		},
		{
			"ts": 2018250,
			"x": 0.0551122650504112,
			"y": 0.403803706169128,
			"z": 1.44327902793884
		},
		{
			"ts": 2018282,
			"x": 0.0301584787666798,
			"y": 0.396572262048721,
			"z": 1.44453299045563
		},
		{
			"ts": 2018318,
			"x": 0.0067046582698822,
			"y": 0.395306497812271,
			"z": 1.44629001617432
		},
		{
			"ts": 2018350,
			"x": -0.0268691182136536,
			"y": 0.425548434257507,
			"z": 1.46202766895294
		},
		{
			"ts": 2018386,
			"x": -0.0333435498178005,
			"y": 0.357723474502563,
			"z": 1.44410240650177
		},
		{
			"ts": 2018418,
			"x": -0.0415544025599957,
			"y": 0.357596307992935,
			"z": 1.44516670703888
		},
		{
			"ts": 2018454,
			"x": -0.0561006106436253,
			"y": 0.353415906429291,
			"z": 1.44666838645935
		},
		{
			"ts": 2018486,
			"x": -0.0633961036801338,
			"y": 0.34973007440567,
			"z": 1.44633567333221
		},
		{
			"ts": 2018518,
			"x": -0.0660795792937279,
			"y": 0.349091589450836,
			"z": 1.44620275497437
		},
		{
			"ts": 2018550,
			"x": -0.0651961416006088,
			"y": 0.346635013818741,
			"z": 1.44580733776093
		},
		{
			"ts": 2018582,
			"x": -0.0635593459010124,
			"y": 0.348897606134415,
			"z": 1.44449198246002
		},
		{
			"ts": 2018614,
			"x": -0.050980843603611,
			"y": 0.356400787830353,
			"z": 1.44001817703247
		},
		{
			"ts": 2018646,
			"x": -0.0299648642539978,
			"y": 0.387575447559357,
			"z": 1.43775475025177
		},
		{
			"ts": 2018682,
			"x": -0.0218778979033232,
			"y": 0.401669025421143,
			"z": 1.43511569499969
		},
		{
			"ts": 2018714,
			"x": -0.00165436137467623,
			"y": 0.402874529361725,
			"z": 1.42789733409882
		},
		{
			"ts": 2018750,
			"x": 0.034602452069521,
			"y": 0.403977572917938,
			"z": 1.41782855987549
		},
		{
			"ts": 2018782,
			"x": 0.0678921788930893,
			"y": 0.425027370452881,
			"z": 1.4097992181778
		},
		{
			"ts": 2018818,
			"x": 0.0937264636158943,
			"y": 0.418207943439484,
			"z": 1.40228998661041
		},
		{
			"ts": 2018850,
			"x": 0.131121277809143,
			"y": 0.41839063167572,
			"z": 1.39015543460846
		},
		{
			"ts": 2018882,
			"x": 0.144773244857788,
			"y": 0.407918393611908,
			"z": 1.38718795776367
		},
		{
			"ts": 2018918,
			"x": 0.166683316230774,
			"y": 0.402630627155304,
			"z": 1.38095033168793
		},
		{
			"ts": 2018954,
			"x": 0.175523743033409,
			"y": 0.391621291637421,
			"z": 1.37985575199127
		},
		{
			"ts": 2018986,
			"x": 0.185223609209061,
			"y": 0.381668388843536,
			"z": 1.37835347652435
		},
		{
			"ts": 2019018,
			"x": 0.188886642456055,
			"y": 0.375003784894943,
			"z": 1.37907004356384
		},
		{
			"ts": 2019050,
			"x": 0.190140128135681,
			"y": 0.372129559516907,
			"z": 1.38039541244507
		},
		{
			"ts": 2019082,
			"x": 0.188160210847855,
			"y": 0.369185566902161,
			"z": 1.38270568847656
		},
		{
			"ts": 2019118,
			"x": 0.184815973043442,
			"y": 0.370518803596497,
			"z": 1.38748407363892
		},
		{
			"ts": 2019150,
			"x": 0.175817787647247,
			"y": 0.373851478099823,
			"z": 1.39493846893311
		},
		{
			"ts": 2019182,
			"x": 0.165217101573944,
			"y": 0.380101442337036,
			"z": 1.39971613883972
		},
		{
			"ts": 2019214,
			"x": 0.141610816121101,
			"y": 0.392269670963287,
			"z": 1.40951335430145
		},
		{
			"ts": 2019246,
			"x": 0.108532801270485,
			"y": 0.397735834121704,
			"z": 1.41823649406433
		},
		{
			"ts": 2019282,
			"x": 0.0835649818181992,
			"y": 0.396344393491745,
			"z": 1.42415297031403
		},
		{
			"ts": 2019314,
			"x": 0.0574859604239464,
			"y": 0.39142918586731,
			"z": 1.42924249172211
		},
		{
			"ts": 2019346,
			"x": 0.0332675911486149,
			"y": 0.393361508846283,
			"z": 1.43694841861725
		},
		{
			"ts": 2019378,
			"x": 0.0102072423323989,
			"y": 0.392637312412262,
			"z": 1.44472777843475
		},
		{
			"ts": 2019410,
			"x": -0.00824074726551771,
			"y": 0.387332022190094,
			"z": 1.45020544528961
		},
		{
			"ts": 2019446,
			"x": -0.0269987899810076,
			"y": 0.366985768079758,
			"z": 1.45393693447113
		},
		{
			"ts": 2019478,
			"x": -0.0344344116747379,
			"y": 0.360458612442017,
			"z": 1.4564403295517
		},
		{
			"ts": 2019510,
			"x": -0.0428819358348846,
			"y": 0.355964303016663,
			"z": 1.45931482315063
		},
		{
			"ts": 2019546,
			"x": -0.0437777154147625,
			"y": 0.35640686750412,
			"z": 1.45996153354645
		},
		{
			"ts": 2019582,
			"x": -0.0404010936617851,
			"y": 0.355138897895813,
			"z": 1.45944821834564
		},
		{
			"ts": 2019614,
			"x": -0.0285090766847134,
			"y": 0.361169785261154,
			"z": 1.45670509338379
		},
		{
			"ts": 2019646,
			"x": -0.00547911413013935,
			"y": 0.371930599212646,
			"z": 1.45027220249176
		},
		{
			"ts": 2019682,
			"x": 0.0129399606958032,
			"y": 0.387098044157028,
			"z": 1.44599759578705
		},
		{
			"ts": 2019714,
			"x": 0.0372893288731575,
			"y": 0.392014354467392,
			"z": 1.43750321865082
		},
		{
			"ts": 2019750,
			"x": 0.0678789988160133,
			"y": 0.398804038763046,
			"z": 1.42976367473602
		},
		{
			"ts": 2019782,
			"x": 0.0947103649377823,
			"y": 0.401886850595474,
			"z": 1.42292785644531
		},
		{
			"ts": 2019818,
			"x": 0.130251690745354,
			"y": 0.40614315867424,
			"z": 1.41279947757721
		},
		{
			"ts": 2019850,
			"x": 0.152198821306229,
			"y": 0.404654920101166,
			"z": 1.40507197380066
		},
		{
			"ts": 2019882,
			"x": 0.164306282997131,
			"y": 0.392159819602966,
			"z": 1.40222465991974
		},
		{
			"ts": 2019914,
			"x": 0.172455787658691,
			"y": 0.384314358234406,
			"z": 1.40020799636841
		},
		{
			"ts": 2019947,
			"x": 0.179324969649315,
			"y": 0.37835305929184,
			"z": 1.39809143543243
		},
		{
			"ts": 2019982,
			"x": 0.183711886405945,
			"y": 0.372387051582336,
			"z": 1.39703822135925
		},
		{
			"ts": 2020014,
			"x": 0.175627127289772,
			"y": 0.323498576879501,
			"z": 1.40258657932281
		},
		{
			"ts": 2020046,
			"x": 0.186050564050674,
			"y": 0.368031293153763,
			"z": 1.39880120754242
		},
		{
			"ts": 2020078,
			"x": 0.184175029397011,
			"y": 0.368920028209686,
			"z": 1.40025627613068
		},
		{
			"ts": 2020110,
			"x": 0.176879644393921,
			"y": 0.373431205749512,
			"z": 1.40428626537323
		},
		{
			"ts": 2020146,
			"x": 0.166791766881943,
			"y": 0.380805104970932,
			"z": 1.40893411636353
		},
		{
			"ts": 2020178,
			"x": 0.14214038848877,
			"y": 0.396295040845871,
			"z": 1.41654467582703
		},
		{
			"ts": 2020210,
			"x": 0.116976261138916,
			"y": 0.399731397628784,
			"z": 1.42370653152466
		},
		{
			"ts": 2020246,
			"x": 0.0892202705144882,
			"y": 0.411668181419373,
			"z": 1.43175494670868
		},
		{
			"ts": 2020278,
			"x": 0.0625902414321899,
			"y": 0.409512758255005,
			"z": 1.43784976005554
		},
		{
			"ts": 2020314,
			"x": 0.0419040471315384,
			"y": 0.40744611620903,
			"z": 1.44209909439087
		},
		{
			"ts": 2020346,
			"x": 0.00374512374401093,
			"y": 0.429298728704453,
			"z": 1.45656514167786
		},
		{
			"ts": 2020382,
			"x": -0.000696065777447075,
			"y": 0.382548987865448,
			"z": 1.44887697696686
		},
		{
			"ts": 2020414,
			"x": -0.00587014900520444,
			"y": 0.363992184400558,
			"z": 1.44887900352478
		},
		{
			"ts": 2020450,
			"x": -0.0155667699873447,
			"y": 0.359993189573288,
			"z": 1.45076930522919
		},
		{
			"ts": 2020486,
			"x": -0.0221575200557709,
			"y": 0.357266068458557,
			"z": 1.45185685157776
		},
		{
			"ts": 2020518,
			"x": -0.0287566166371107,
			"y": 0.354498505592346,
			"z": 1.45249545574188
		},
		{
			"ts": 2020550,
			"x": -0.0303034335374832,
			"y": 0.353602349758148,
			"z": 1.4527336359024
		},
		{
			"ts": 2020582,
			"x": -0.0295343585312366,
			"y": 0.352407991886139,
			"z": 1.44794392585754
		},
		{
			"ts": 2020614,
			"x": -0.0276645421981812,
			"y": 0.354880154132843,
			"z": 1.44999241828918
		},
		{
			"ts": 2020650,
			"x": -0.0246365554630756,
			"y": 0.426659226417542,
			"z": 1.46063899993896
		},
		{
			"ts": 2020682,
			"x": -0.0170933492481709,
			"y": 0.429464995861053,
			"z": 1.4572422504425
		},
		{
			"ts": 2020714,
			"x": 1.65104866027832e-05,
			"y": 0.432209044694901,
			"z": 1.45123863220215
		},
		{
			"ts": 2020746,
			"x": 0.0437238849699497,
			"y": 0.412157237529755,
			"z": 1.43334877490997
		},
		{
			"ts": 2020778,
			"x": 0.0610662177205086,
			"y": 0.415842920541763,
			"z": 1.42963600158691
		},
		{
			"ts": 2020814,
			"x": 0.102258130908012,
			"y": 0.427576303482056,
			"z": 1.41981446743011
		},
		{
			"ts": 2020846,
			"x": 0.121683537960052,
			"y": 0.422235131263733,
			"z": 1.41340911388397
		},
		{
			"ts": 2020878,
			"x": 0.148779481649399,
			"y": 0.408757656812668,
			"z": 1.40416991710663
		},
		{
			"ts": 2020910,
			"x": 0.169017851352692,
			"y": 0.40531849861145,
			"z": 1.39752602577209
		},
		{
			"ts": 2020942,
			"x": 0.177782088518143,
			"y": 0.398131430149078,
			"z": 1.3945677280426
		},
		{
			"ts": 2020978,
			"x": 0.18424865603447,
			"y": 0.389266073703766,
			"z": 1.39230704307556
		},
		{
			"ts": 2021010,
			"x": 0.189495116472244,
			"y": 0.383608102798462,
			"z": 1.39051985740662
		},
		{
			"ts": 2021042,
			"x": 0.191154673695564,
			"y": 0.379208326339722,
			"z": 1.39058423042297
		},
		{
			"ts": 2021078,
			"x": 0.18982806801796,
			"y": 0.376571953296661,
			"z": 1.39163672924042
		},
		{
			"ts": 2021110,
			"x": 0.187528505921364,
			"y": 0.377206146717072,
			"z": 1.39405679702759
		},
		{
			"ts": 2021146,
			"x": 0.180334538221359,
			"y": 0.380402624607086,
			"z": 1.39918458461761
		},
		{
			"ts": 2021178,
			"x": 0.166885212063789,
			"y": 0.388714730739594,
			"z": 1.40517926216125
		},
		{
			"ts": 2021214,
			"x": 0.146413415670395,
			"y": 0.400955617427826,
			"z": 1.41385090351105
		},
		{
			"ts": 2021246,
			"x": 0.116334453225136,
			"y": 0.403128653764725,
			"z": 1.4230170249939
		},
		{
			"ts": 2021278,
			"x": 0.0942367315292358,
			"y": 0.406428992748261,
			"z": 1.42994356155396
		},
		{
			"ts": 2021314,
			"x": 0.0629587471485138,
			"y": 0.404220074415207,
			"z": 1.43732094764709
		},
		{
			"ts": 2021350,
			"x": 0.0460880398750305,
			"y": 0.39785361289978,
			"z": 1.4421443939209
		},
		{
			"ts": 2021382,
			"x": 0.0139211565256119,
			"y": 0.416539490222931,
			"z": 1.46516025066376
		},
		{
			"ts": 2021414,
			"x": 0.000667847984004766,
			"y": 0.381778120994568,
			"z": 1.45795667171478
		},
		{
			"ts": 2021446,
			"x": -0.00505117047578096,
			"y": 0.369340419769287,
			"z": 1.45939660072327
		},
		{
			"ts": 2021478,
			"x": -0.0145275993272662,
			"y": 0.362090051174164,
			"z": 1.46237635612488
		},
		{
			"ts": 2021514,
			"x": -0.020166277885437,
			"y": 0.359088599681854,
			"z": 1.46437525749207
		},
		{
			"ts": 2021546,
			"x": -0.0212958212941885,
			"y": 0.358875453472137,
			"z": 1.46507620811462
		},
		{
			"ts": 2021578,
			"x": -0.0198715887963772,
			"y": 0.358198165893555,
			"z": 1.46491801738739
		},
		{
			"ts": 2021614,
			"x": -0.0103313494473696,
			"y": 0.367109477519989,
			"z": 1.46404254436493
		},
		{
			"ts": 2021646,
			"x": 0.00805485993623734,
			"y": 0.421419680118561,
			"z": 1.4664101600647
		},
		{
			"ts": 2021678,
			"x": 0.0131979547441006,
			"y": 0.422579824924469,
			"z": 1.46265149116516
		},
		{
			"ts": 2021710,
			"x": 0.0517296865582466,
			"y": 0.411838203668594,
			"z": 1.44276690483093
		},
		{
			"ts": 2021742,
			"x": 0.069683164358139,
			"y": 0.416955053806305,
			"z": 1.43828749656677
		},
		{
			"ts": 2021778,
			"x": 0.102056562900543,
			"y": 0.415632039308548,
			"z": 1.42747962474823
		},
		{
			"ts": 2021810,
			"x": 0.132846891880035,
			"y": 0.418334186077118,
			"z": 1.41718351840973
		},
		{
			"ts": 2021842,
			"x": 0.153645977377892,
			"y": 0.413255214691162,
			"z": 1.40984404087067
		},
		{
			"ts": 2021874,
			"x": 0.168689221143723,
			"y": 0.403489649295807,
			"z": 1.4043390750885
		},
		{
			"ts": 2021906,
			"x": 0.176822870969772,
			"y": 0.394434958696365,
			"z": 1.40061378479004
		},
		{
			"ts": 2021942,
			"x": 0.183518946170807,
			"y": 0.386416614055634,
			"z": 1.39689457416534
		},
		{
			"ts": 2021974,
			"x": 0.186861351132393,
			"y": 0.380970299243927,
			"z": 1.39492011070251
		},
		{
			"ts": 2022006,
			"x": 0.187531515955925,
			"y": 0.377115696668625,
			"z": 1.39448082447052
		},
		{
			"ts": 2022042,
			"x": 0.187018185853958,
			"y": 0.376138210296631,
			"z": 1.39477002620697
		},
		{
			"ts": 2022078,
			"x": 0.183265119791031,
			"y": 0.377758800983429,
			"z": 1.39599192142487
		},
		{
			"ts": 2022110,
			"x": 0.175043821334839,
			"y": 0.38296502828598,
			"z": 1.39956474304199
		},
		{
			"ts": 2022142,
			"x": 0.158111095428467,
			"y": 0.397106289863586,
			"z": 1.40557479858398
		},
		{
			"ts": 2022178,
			"x": 0.119577534496784,
			"y": 0.401193052530289,
			"z": 1.42000389099121
		},
		{
			"ts": 2022210,
			"x": 0.104030959308147,
			"y": 0.408685445785522,
			"z": 1.42512881755829
		},
		{
			"ts": 2022246,
			"x": 0.0666147917509079,
			"y": 0.409896075725555,
			"z": 1.437615275383
		},
		{
			"ts": 2022278,
			"x": 0.0494964346289635,
			"y": 0.405834972858429,
			"z": 1.44213438034058
		},
		{
			"ts": 2022314,
			"x": 0.0125323906540871,
			"y": 0.425807893276215,
			"z": 1.46455156803131
		},
		{
			"ts": 2022346,
			"x": 0.00154096388723701,
			"y": 0.391375035047531,
			"z": 1.46078670024872
		},
		{
			"ts": 2022378,
			"x": -0.00682520261034369,
			"y": 0.362669587135315,
			"z": 1.4604594707489
		},
		{
			"ts": 2022414,
			"x": -0.0184429325163364,
			"y": 0.361703634262085,
			"z": 1.46456551551819
		},
		{
			"ts": 2022450,
			"x": -0.0279165469110012,
			"y": 0.358789443969727,
			"z": 1.46878361701965
		},
		{
			"ts": 2022482,
			"x": -0.0504145361483097,
			"y": 0.366626262664795,
			"z": 1.47826194763184
		},
		{
			"ts": 2022518,
			"x": -0.0655256286263466,
			"y": 0.404280751943588,
			"z": 1.49079418182373
		},
		{
			"ts": 2022550,
			"x": -0.027309738099575,
			"y": 0.36713981628418,
			"z": 1.47382462024689
		},
		{
			"ts": 2022582,
			"x": -0.00277727842330933,
			"y": 0.365064561367035,
			"z": 1.45618641376495
		},
		{
			"ts": 2022614,
			"x": 0.0110982321202755,
			"y": 0.364198803901672,
			"z": 1.45225048065186
		},
		{
			"ts": 2022646,
			"x": 0.0335786789655685,
			"y": 0.367158770561218,
			"z": 1.45021903514862
		},
		{
			"ts": 2022678,
			"x": 0.051155149936676,
			"y": 0.407910943031311,
			"z": 1.44946837425232
		},
		{
			"ts": 2022710,
			"x": 0.0672442689538002,
			"y": 0.418542742729187,
			"z": 1.44688773155212
		},
		{
			"ts": 2022746,
			"x": 0.0967214703559875,
			"y": 0.41681981086731,
			"z": 1.43865287303925
		},
		{
			"ts": 2022778,
			"x": 0.127664849162102,
			"y": 0.417225897312164,
			"z": 1.42725002765656
		},
		{
			"ts": 2022810,
			"x": 0.147464767098427,
			"y": 0.411700785160065,
			"z": 1.42054975032806
		},
		{
			"ts": 2022842,
			"x": 0.162704646587372,
			"y": 0.401703536510468,
			"z": 1.41593015193939
		},
		{
			"ts": 2022874,
			"x": 0.171369135379791,
			"y": 0.39448744058609,
			"z": 1.41385746002197
		},
		{
			"ts": 2022910,
			"x": 0.178571850061417,
			"y": 0.388513743877411,
			"z": 1.41139125823975
		},
		{
			"ts": 2022942,
			"x": 0.183565020561218,
			"y": 0.382871866226196,
			"z": 1.40987825393677
		},
		{
			"ts": 2022974,
			"x": 0.186139613389969,
			"y": 0.379526138305664,
			"z": 1.40953326225281
		},
		{
			"ts": 2023006,
			"x": 0.185661762952805,
			"y": 0.378277599811554,
			"z": 1.41012918949127
		},
		{
			"ts": 2023038,
			"x": 0.184928089380264,
			"y": 0.378761976957321,
			"z": 1.41098570823669
		},
		{
			"ts": 2023074,
			"x": 0.179620429873466,
			"y": 0.382408738136292,
			"z": 1.41461741924286
		},
		{
			"ts": 2023106,
			"x": 0.167737901210785,
			"y": 0.39258736371994,
			"z": 1.419677734375
		},
		{
			"ts": 2023138,
			"x": 0.144455447793007,
			"y": 0.407416313886642,
			"z": 1.42945802211761
		},
		{
			"ts": 2023174,
			"x": 0.116590723395348,
			"y": 0.410808682441711,
			"z": 1.43960320949554
		},
		{
			"ts": 2023210,
			"x": 0.0921254679560661,
			"y": 0.416592359542847,
			"z": 1.44639754295349
		},
		{
			"ts": 2023242,
			"x": 0.0618499517440796,
			"y": 0.414799332618713,
			"z": 1.45349979400635
		},
		{
			"ts": 2023274,
			"x": 0.0448575168848038,
			"y": 0.406815975904465,
			"z": 1.45822978019714
		},
		{
			"ts": 2023310,
			"x": 0.00408052653074265,
			"y": 0.428273856639862,
			"z": 1.48093855381012
		},
		{
			"ts": 2023342,
			"x": -0.00321771204471588,
			"y": 0.426976382732391,
			"z": 1.48384189605713
		},
		{
			"ts": 2023378,
			"x": -0.0379139110445976,
			"y": 0.415811032056808,
			"z": 1.49736166000366
		},
		{
			"ts": 2023410,
			"x": -0.0595555379986763,
			"y": 0.406418770551682,
			"z": 1.49806237220764
		},
		{
			"ts": 2023446,
			"x": -0.0328314006328583,
			"y": 0.350576281547546,
			"z": 1.48203063011169
		},
		{
			"ts": 2023478,
			"x": -0.0319820716977119,
			"y": 0.350072145462036,
			"z": 1.4815057516098
		},
		{
			"ts": 2023510,
			"x": -0.0310722887516022,
			"y": 0.350791752338409,
			"z": 1.48119640350342
		},
		{
			"ts": 2023546,
			"x": -0.0259789600968361,
			"y": 0.354147911071777,
			"z": 1.47933125495911
		},
		{
			"ts": 2023582,
			"x": -0.0168999210000038,
			"y": 0.43006306886673,
			"z": 1.48216116428375
		},
		{
			"ts": 2023614,
			"x": -0.00491739809513092,
			"y": 0.429589688777924,
			"z": 1.47709286212921
		},
		{
			"ts": 2023646,
			"x": 0.014812346547842,
			"y": 0.437755286693573,
			"z": 1.46603393554688
		},
		{
			"ts": 2023678,
			"x": 0.0563334636390209,
			"y": 0.415895849466324,
			"z": 1.449378490448
		},
		{
			"ts": 2023710,
			"x": 0.0750071406364441,
			"y": 0.421822786331177,
			"z": 1.44559705257416
		},
		{
			"ts": 2023746,
			"x": 0.10889994353056,
			"y": 0.42085400223732,
			"z": 1.43543040752411
		},
		{
			"ts": 2023778,
			"x": 0.137322276830673,
			"y": 0.422174841165543,
			"z": 1.42560684680939
		},
		{
			"ts": 2023810,
			"x": 0.155935749411583,
			"y": 0.418337941169739,
			"z": 1.42027461528778
		},
		{
			"ts": 2023842,
			"x": 0.169097170233727,
			"y": 0.408937752246857,
			"z": 1.41779744625092
		},
		{
			"ts": 2023874,
			"x": 0.180977419018745,
			"y": 0.40116086602211,
			"z": 1.41576099395752
		},
		{
			"ts": 2023910,
			"x": 0.186213105916977,
			"y": 0.396140903234482,
			"z": 1.4150378704071
		},
		{
			"ts": 2023942,
			"x": 0.190138250589371,
			"y": 0.392281234264374,
			"z": 1.4149489402771
		},
		{
			"ts": 2023974,
			"x": 0.192246362566948,
			"y": 0.390287637710571,
			"z": 1.41539347171783
		},
		{
			"ts": 2024006,
			"x": 0.192129611968994,
			"y": 0.389604568481445,
			"z": 1.41619098186493
		},
		{
			"ts": 2024038,
			"x": 0.190953761339188,
			"y": 0.389904528856277,
			"z": 1.4188050031662
		},
		{
			"ts": 2024074,
			"x": 0.185155510902405,
			"y": 0.392271041870117,
			"z": 1.42442810535431
		},
		{
			"ts": 2024106,
			"x": 0.175256311893463,
			"y": 0.398521959781647,
			"z": 1.43012607097626
		},
		{
			"ts": 2024142,
			"x": 0.155051991343498,
			"y": 0.406631201505661,
			"z": 1.43956005573273
		},
		{
			"ts": 2024174,
			"x": 0.127955168485641,
			"y": 0.409656316041946,
			"z": 1.44791722297668
		},
		{
			"ts": 2024210,
			"x": 0.106987610459328,
			"y": 0.421048581600189,
			"z": 1.45574462413788
		},
		{
			"ts": 2024242,
			"x": 0.0776813179254532,
			"y": 0.427044868469238,
			"z": 1.464688539505
		},
		{
			"ts": 2024274,
			"x": 0.057660099118948,
			"y": 0.420871913433075,
			"z": 1.46883237361908
		},
		{
			"ts": 2024310,
			"x": 0.0150635913014412,
			"y": 0.434523075819016,
			"z": 1.49122762680054
		},
		{
			"ts": 2024342,
			"x": 0.0171551499515772,
			"y": 0.380631685256958,
			"z": 1.47900712490082
		},
		{
			"ts": 2024378,
			"x": 0.00947050750255585,
			"y": 0.369909524917603,
			"z": 1.47931134700775
		},
		{
			"ts": 2024410,
			"x": -0.00309263914823532,
			"y": 0.369151800870895,
			"z": 1.4824686050415
		},
		{
			"ts": 2024446,
			"x": -0.00947841256856918,
			"y": 0.366418659687042,
			"z": 1.48373997211456
		},
		{
			"ts": 2024478,
			"x": -0.0141636058688164,
			"y": 0.363420426845551,
			"z": 1.48517107963562
		},
		{
			"ts": 2024514,
			"x": -0.0153413936495781,
			"y": 0.362520158290863,
			"z": 1.48568260669708
		},
		{
			"ts": 2024550,
			"x": -0.0157724469900131,
			"y": 0.36301851272583,
			"z": 1.48588585853577
		},
		{
			"ts": 2024582,
			"x": -0.0140462815761566,
			"y": 0.364634096622467,
			"z": 1.48576951026917
		},
		{
			"ts": 2024615,
			"x": -0.0157484337687492,
			"y": 0.433926105499268,
			"z": 1.50114631652832
		},
		{
			"ts": 2024646,
			"x": -0.00171026587486267,
			"y": 0.433943718671799,
			"z": 1.49647974967957
		},
		{
			"ts": 2024678,
			"x": 0.021257471293211,
			"y": 0.439060986042023,
			"z": 1.48639142513275
		},
		{
			"ts": 2024714,
			"x": 0.0595404654741287,
			"y": 0.420877695083618,
			"z": 1.47037875652313
		},
		{
			"ts": 2024746,
			"x": 0.0727505758404732,
			"y": 0.422739088535309,
			"z": 1.4677517414093
		},
		{
			"ts": 2024778,
			"x": 0.100404694676399,
			"y": 0.42848989367485,
			"z": 1.46172177791595
		},
		{
			"ts": 2024810,
			"x": 0.127712324261665,
			"y": 0.426829159259796,
			"z": 1.45313382148743
		},
		{
			"ts": 2024842,
			"x": 0.15008319914341,
			"y": 0.419915944337845,
			"z": 1.44688653945923
		},
		{
			"ts": 2024874,
			"x": 0.164605498313904,
			"y": 0.412704050540924,
			"z": 1.44186234474182
		},
		{
			"ts": 2024906,
			"x": 0.178733989596367,
			"y": 0.405968904495239,
			"z": 1.4386659860611
		},
		{
			"ts": 2024942,
			"x": 0.188046485185623,
			"y": 0.400501132011414,
			"z": 1.43627822399139
		},
		{
			"ts": 2024974,
			"x": 0.195442229509354,
			"y": 0.395835518836975,
			"z": 1.43346095085144
		},
		{
			"ts": 2025006,
			"x": 0.198418721556664,
			"y": 0.39354345202446,
			"z": 1.43280732631683
		},
		{
			"ts": 2025038,
			"x": 0.199807241559029,
			"y": 0.392560303211212,
			"z": 1.43274676799774
		},
		{
			"ts": 2025070,
			"x": 0.199787691235542,
			"y": 0.391815066337585,
			"z": 1.43307971954346
		},
		{
			"ts": 2025106,
			"x": 0.197543188929558,
			"y": 0.393069535493851,
			"z": 1.43610191345215
		},
		{
			"ts": 2025138,
			"x": 0.191466897726059,
			"y": 0.395545154809952,
			"z": 1.43852722644806
		},
		{
			"ts": 2025174,
			"x": 0.177609086036682,
			"y": 0.402837157249451,
			"z": 1.44207501411438
		},
		{
			"ts": 2025206,
			"x": 0.155182480812073,
			"y": 0.417979180812836,
			"z": 1.44718956947327
		},
		{
			"ts": 2025242,
			"x": 0.121389903128147,
			"y": 0.420322954654694,
			"z": 1.45551085472107
		},
		{
			"ts": 2025274,
			"x": 0.0891058370471001,
			"y": 0.429024189710617,
			"z": 1.46264362335205
		},
		{
			"ts": 2025306,
			"x": 0.0607559084892273,
			"y": 0.429047048091888,
			"z": 1.46687412261963
		},
		{
			"ts": 2025342,
			"x": 0.0187358111143112,
			"y": 0.43006557226181,
			"z": 1.48373866081238
		},
		{
			"ts": 2025374,
			"x": 0.00953192822635174,
			"y": 0.394889891147614,
			"z": 1.48046851158142
		},
		{
			"ts": 2025410,
			"x": -0.00125010334886611,
			"y": 0.374548137187958,
			"z": 1.48193502426147
		},
		{
			"ts": 2025442,
			"x": -0.00898205302655697,
			"y": 0.368233919143677,
			"z": 1.48458802700043
		},
		{
			"ts": 2025478,
			"x": -0.0135849853977561,
			"y": 0.363479107618332,
			"z": 1.48639833927155
		},
		{
			"ts": 2025510,
			"x": -0.0164298359304667,
			"y": 0.362231314182281,
			"z": 1.48749244213104
		},
		{
			"ts": 2025546,
			"x": -0.0424422472715378,
			"y": 0.391835391521454,
			"z": 1.49819493293762
		},
		{
			"ts": 2025578,
			"x": -0.0417168065905571,
			"y": 0.423220098018646,
			"z": 1.49987828731537
		},
		{
			"ts": 2025614,
			"x": 0.0105827935039997,
			"y": 0.376538991928101,
			"z": 1.47528207302094
		},
		{
			"ts": 2025646,
			"x": 0.010868139564991,
			"y": 0.438963115215302,
			"z": 1.48091793060303
		},
		{
			"ts": 2025678,
			"x": 0.0218284167349339,
			"y": 0.442290186882019,
			"z": 1.47570407390594
		},
		{
			"ts": 2025710,
			"x": 0.0648860037326813,
			"y": 0.420647531747818,
			"z": 1.45948565006256
		},
		{
			"ts": 2025742,
			"x": 0.0780947506427765,
			"y": 0.425301671028137,
			"z": 1.45478463172913
		},
		{
			"ts": 2025774,
			"x": 0.105127163231373,
			"y": 0.425075709819794,
			"z": 1.44628620147705
		},
		{
			"ts": 2025806,
			"x": 0.138232111930847,
			"y": 0.444572269916534,
			"z": 1.4341584444046
		},
		{
			"ts": 2025842,
			"x": 0.162848278880119,
			"y": 0.419348895549774,
			"z": 1.4269073009491
		},
		{
			"ts": 2025874,
			"x": 0.167436808347702,
			"y": 0.41273832321167,
			"z": 1.42563700675964
		},
		{
			"ts": 2025906,
			"x": 0.174945130944252,
			"y": 0.403387844562531,
			"z": 1.42381143569946
		},
		{
			"ts": 2025938,
			"x": 0.180041432380676,
			"y": 0.397541850805283,
			"z": 1.42262017726898
		},
		{
			"ts": 2025970,
			"x": 0.183632671833038,
			"y": 0.393575251102448,
			"z": 1.42164409160614
		},
		{
			"ts": 2026006,
			"x": 0.185302764177322,
			"y": 0.391560524702072,
			"z": 1.42107546329498
		},
		{
			"ts": 2026038,
			"x": 0.185250297188759,
			"y": 0.390639215707779,
			"z": 1.42134749889374
		},
		{
			"ts": 2026074,
			"x": 0.184548556804657,
			"y": 0.390120625495911,
			"z": 1.42192769050598
		},
		{
			"ts": 2026106,
			"x": 0.18055048584938,
			"y": 0.394121497869492,
			"z": 1.42392253875732
		},
		{
			"ts": 2026141,
			"x": 0.172129705548286,
			"y": 0.399395704269409,
			"z": 1.4280104637146
		},
		{
			"ts": 2026174,
			"x": 0.134411573410034,
			"y": 0.390546470880508,
			"z": 1.44080018997192
		},
		{
			"ts": 2026206,
			"x": 0.123598024249077,
			"y": 0.402029514312744,
			"z": 1.44422662258148
		},
		{
			"ts": 2026242,
			"x": 0.0987906455993652,
			"y": 0.415944993495941,
			"z": 1.45166659355164
		},
		{
			"ts": 2026278,
			"x": 0.074961744248867,
			"y": 0.416409909725189,
			"z": 1.45740342140198
		},
		{
			"ts": 2026309,
			"x": 0.0489455088973045,
			"y": 0.422143489122391,
			"z": 1.46337449550629
		},
		{
			"ts": 2026342,
			"x": 0.0148749202489853,
			"y": 0.428386658430099,
			"z": 1.47873342037201
		},
		{
			"ts": 2026374,
			"x": 0.00571496784687042,
			"y": 0.429361581802368,
			"z": 1.47998905181885
		},
		{
			"ts": 2026406,
			"x": -0.0046747624874115,
			"y": 0.363488882780075,
			"z": 1.47215342521667
		},
		{
			"ts": 2026442,
			"x": -0.00766187347471714,
			"y": 0.362124651670456,
			"z": 1.47286355495453
		},
		{
			"ts": 2026473,
			"x": -0.0175354350358248,
			"y": 0.360629230737686,
			"z": 1.47616243362427
		},
		{
			"ts": 2026506,
			"x": -0.0201613157987595,
			"y": 0.358355045318604,
			"z": 1.47690272331238
		},
		{
			"ts": 2026538,
			"x": -0.02248914539814,
			"y": 0.358521223068237,
			"z": 1.47767639160156
		},
		{
			"ts": 2026570,
			"x": -0.0229836851358414,
			"y": 0.35922372341156,
			"z": 1.47768545150757
		},
		{
			"ts": 2026606,
			"x": -0.0205095708370209,
			"y": 0.360770851373672,
			"z": 1.47643840312958
		},
		{
			"ts": 2026638,
			"x": -0.00456851720809937,
			"y": 0.368979066610336,
			"z": 1.46987855434418
		},
		{
			"ts": 2026669,
			"x": -2.36928462982178e-06,
			"y": 0.438748776912689,
			"z": 1.47224497795105
		},
		{
			"ts": 2026701,
			"x": 0.0114831402897835,
			"y": 0.438766181468964,
			"z": 1.46725487709045
		},
		{
			"ts": 2026734,
			"x": 0.0500697270035744,
			"y": 0.446080982685089,
			"z": 1.45242547988892
		},
		{
			"ts": 2026769,
			"x": 0.0856428891420364,
			"y": 0.424548983573914,
			"z": 1.44360959529877
		},
		{
			"ts": 2026801,
			"x": 0.0985360667109489,
			"y": 0.42587149143219,
			"z": 1.43952429294586
		},
		{
			"ts": 2026834,
			"x": 0.138577058911324,
			"y": 0.434534579515457,
			"z": 1.42564797401428
		},
		{
			"ts": 2026869,
			"x": 0.15271133184433,
			"y": 0.423627972602844,
			"z": 1.42055833339691
		},
		{
			"ts": 2026905,
			"x": 0.166915476322174,
			"y": 0.410718977451324,
			"z": 1.41580986976624
		},
		{
			"ts": 2026937,
			"x": 0.171137422323227,
			"y": 0.405336171388626,
			"z": 1.4154679775238
		},
		{
			"ts": 2026973,
			"x": 0.173723161220551,
			"y": 0.399286448955536,
			"z": 1.41543197631836
		},
		{
			"ts": 2027005,
			"x": 0.175035655498505,
			"y": 0.397321462631226,
			"z": 1.41532850265503
		},
		{
			"ts": 2027038,
			"x": 0.175016283988953,
			"y": 0.396100223064423,
			"z": 1.41580665111542
		},
		{
			"ts": 2027073,
			"x": 0.174392208456993,
			"y": 0.396900117397308,
			"z": 1.41632306575775
		},
		{
			"ts": 2027109,
			"x": 0.165296524763107,
			"y": 0.403522580862045,
			"z": 1.42060911655426
		},
		{
			"ts": 2027141,
			"x": 0.144222527742386,
			"y": 0.415203630924225,
			"z": 1.43008852005005
		},
		{
			"ts": 2027174,
			"x": 0.122410960495472,
			"y": 0.420058161020279,
			"z": 1.43893849849701
		},
		{
			"ts": 2027206,
			"x": 0.0965089499950409,
			"y": 0.419501811265945,
			"z": 1.44619357585907
		},
		{
			"ts": 2027238,
			"x": 0.0755231976509094,
			"y": 0.417268395423889,
			"z": 1.45137119293213
		},
		{
			"ts": 2027273,
			"x": 0.0468921661376953,
			"y": 0.426259994506836,
			"z": 1.46016716957092
		},
		{
			"ts": 2027305,
			"x": 0.0141855478286743,
			"y": 0.436139732599258,
			"z": 1.47899198532104
		},
		{
			"ts": 2027338,
			"x": 0.00886114872992039,
			"y": 0.400241076946259,
			"z": 1.46944522857666
		},
		{
			"ts": 2027370,
			"x": 0.00634037703275681,
			"y": 0.369655907154083,
			"z": 1.46645426750183
		},
		{
			"ts": 2027402,
			"x": -0.00333885103464127,
			"y": 0.369581282138824,
			"z": 1.46830499172211
		},
		{
			"ts": 2027437,
			"x": -0.015538364648819,
			"y": 0.365959733724594,
			"z": 1.47124123573303
		},
		{
			"ts": 2027469,
			"x": -0.0196002796292305,
			"y": 0.363067477941513,
			"z": 1.47210395336151
		},
		{
			"ts": 2027501,
			"x": -0.0252925455570221,
			"y": 0.36084657907486,
			"z": 1.4735826253891
		},
		{
			"ts": 2027533,
			"x": -0.0454033017158508,
			"y": 0.369305640459061,
			"z": 1.48173296451569
		},
		{
			"ts": 2027566,
			"x": -0.0639518275856972,
			"y": 0.409438699483871,
			"z": 1.49006950855255
		},
		{
			"ts": 2027601,
			"x": -0.0509388409554958,
			"y": 0.39744621515274,
			"z": 1.48462760448456
		},
		{
			"ts": 2027633,
			"x": -0.00345058739185333,
			"y": 0.37547492980957,
			"z": 1.46709966659546
		},
		{
			"ts": 2027666,
			"x": 0.00555726699531078,
			"y": 0.418631315231323,
			"z": 1.46973550319672
		},
		{
			"ts": 2027701,
			"x": 0.012482937425375,
			"y": 0.443144679069519,
			"z": 1.46953999996185
		},
		{
			"ts": 2027738,
			"x": 0.0509177967905998,
			"y": 0.426442116498947,
			"z": 1.45555746555328
		},
		{
			"ts": 2027769,
			"x": 0.0624268800020218,
			"y": 0.426290392875671,
			"z": 1.45257341861725
		},
		{
			"ts": 2027802,
			"x": 0.093313917517662,
			"y": 0.434915214776993,
			"z": 1.44490134716034
		},
		{
			"ts": 2027837,
			"x": 0.119396828114986,
			"y": 0.43319433927536,
			"z": 1.43749809265137
		},
		{
			"ts": 2027869,
			"x": 0.127339214086533,
			"y": 0.454852789640427,
			"z": 1.43262124061584
		},
		{
			"ts": 2027905,
			"x": 0.16899462044239,
			"y": 0.416270464658737,
			"z": 1.42085003852844
		},
		{
			"ts": 2027937,
			"x": 0.174422055482864,
			"y": 0.415541291236877,
			"z": 1.41932153701782
		},
		{
			"ts": 2027973,
			"x": 0.178799450397491,
			"y": 0.408887386322021,
			"z": 1.41893875598907
		},
		{
			"ts": 2028005,
			"x": 0.183225765824318,
			"y": 0.403621554374695,
			"z": 1.41797292232513
		},
		{
			"ts": 2028038,
			"x": 0.184681862592697,
			"y": 0.400315701961517,
			"z": 1.41808557510376
		},
		{
			"ts": 2028070,
			"x": 0.185121536254883,
			"y": 0.398953139781952,
			"z": 1.41839301586151
		},
		{
			"ts": 2028101,
			"x": 0.184319064021111,
			"y": 0.398188292980194,
			"z": 1.41920495033264
		},
		{
			"ts": 2028137,
			"x": 0.180226117372513,
			"y": 0.399986445903778,
			"z": 1.42118871212006
		},
		{
			"ts": 2028169,
			"x": 0.170065745711327,
			"y": 0.403344839811325,
			"z": 1.42549407482147
		},
		{
			"ts": 2028201,
			"x": 0.149617969989777,
			"y": 0.422468155622482,
			"z": 1.43449974060059
		},
		{
			"ts": 2028233,
			"x": 0.123901143670082,
			"y": 0.419960230588913,
			"z": 1.44269943237305
		},
		{
			"ts": 2028266,
			"x": 0.0999977290630341,
			"y": 0.422369927167892,
			"z": 1.44975960254669
		},
		{
			"ts": 2028301,
			"x": 0.0732187405228615,
			"y": 0.421049058437347,
			"z": 1.45662879943848
		},
		{
			"ts": 2028333,
			"x": 0.032592412084341,
			"y": 0.440175175666809,
			"z": 1.47480583190918
		},
		{
			"ts": 2028366,
			"x": 0.0213652327656746,
			"y": 0.435293614864349,
			"z": 1.47963190078735
		},
		{
			"ts": 2028402,
			"x": 0.00176661461591721,
			"y": 0.431223928928375,
			"z": 1.48700201511383
		},
		{
			"ts": 2028434,
			"x": -0.0338691771030426,
			"y": 0.419670343399048,
			"z": 1.48992335796356
		},
		{
			"ts": 2028469,
			"x": -0.0434005223214626,
			"y": 0.394671082496643,
			"z": 1.48955190181732
		},
		{
			"ts": 2028501,
			"x": -0.0560885295271873,
			"y": 0.405606508255005,
			"z": 1.49503684043884
		},
		{
			"ts": 2028537,
			"x": -0.0319139882922173,
			"y": 0.357440620660782,
			"z": 1.48193573951721
		},
		{
			"ts": 2028569,
			"x": -0.0319471955299377,
			"y": 0.357501804828644,
			"z": 1.48196756839752
		},
		{
			"ts": 2028602,
			"x": -0.029900498688221,
			"y": 0.357440829277039,
			"z": 1.48103392124176
		},
		{
			"ts": 2028637,
			"x": -0.0230790749192238,
			"y": 0.36170956492424,
			"z": 1.47821485996246
		},
		{
			"ts": 2028673,
			"x": -0.00925818830728531,
			"y": 0.369225025177002,
			"z": 1.47163891792297
		},
		{
			"ts": 2028705,
			"x": 0.0146496742963791,
			"y": 0.38372266292572,
			"z": 1.46519684791565
		},
		{
			"ts": 2028738,
			"x": 0.0195139870047569,
			"y": 0.443038165569305,
			"z": 1.46439552307129
		},
		{
			"ts": 2028773,
			"x": 0.0505176186561584,
			"y": 0.429768979549408,
			"z": 1.45257997512817
		},
		{
			"ts": 2028805,
			"x": 0.0661259070038795,
			"y": 0.428659349679947,
			"z": 1.44921815395355
		},
		{
			"ts": 2028837,
			"x": 0.0981365889310837,
			"y": 0.434050858020782,
			"z": 1.43997693061829
		},
		{
			"ts": 2028870,
			"x": 0.121926620602608,
			"y": 0.432235300540924,
			"z": 1.43096876144409
		},
		{
			"ts": 2028902,
			"x": 0.141057163476944,
			"y": 0.424262881278992,
			"z": 1.42361927032471
		},
		{
			"ts": 2028937,
			"x": 0.157818049192429,
			"y": 0.417124837636948,
			"z": 1.41575407981873
		},
		{
			"ts": 2028969,
			"x": 0.168763667345047,
			"y": 0.408494174480438,
			"z": 1.41202104091644
		},
		{
			"ts": 2029002,
			"x": 0.175825208425522,
			"y": 0.402430295944214,
			"z": 1.40872931480408
		},
		{
			"ts": 2029033,
			"x": 0.179638117551804,
			"y": 0.397140234708786,
			"z": 1.40676438808441
		},
		{
			"ts": 2029065,
			"x": 0.181208342313766,
			"y": 0.394430577754974,
			"z": 1.40569126605988
		},
		{
			"ts": 2029101,
			"x": 0.181198090314865,
			"y": 0.393271028995514,
			"z": 1.40573513507843
		},
		{
			"ts": 2029133,
			"x": 0.180461719632149,
			"y": 0.392897605895996,
			"z": 1.40637695789337
		},
		{
			"ts": 2029169,
			"x": 0.177406042814255,
			"y": 0.394587576389313,
			"z": 1.40810894966125
		},
		{
			"ts": 2029201,
			"x": 0.165537759661675,
			"y": 0.406582653522491,
			"z": 1.41339004039764
		},
		{
			"ts": 2029237,
			"x": 0.145592898130417,
			"y": 0.421353995800018,
			"z": 1.42340064048767
		},
		{
			"ts": 2029269,
			"x": 0.114890858530998,
			"y": 0.423381507396698,
			"z": 1.43558645248413
		},
		{
			"ts": 2029301,
			"x": 0.0927038267254829,
			"y": 0.426123201847076,
			"z": 1.44329297542572
		},
		{
			"ts": 2029338,
			"x": 0.0659643933176994,
			"y": 0.413227498531342,
			"z": 1.4509699344635
		},
		{
			"ts": 2029373,
			"x": 0.0255459994077683,
			"y": 0.433249711990356,
			"z": 1.47509872913361
		},
		{
			"ts": 2029405,
			"x": 0.0173653960227966,
			"y": 0.429752111434937,
			"z": 1.47985708713531
		},
		{
			"ts": 2029441,
			"x": 0.00441188365221024,
			"y": 0.428619384765625,
			"z": 1.48628461360931
		},
		{
			"ts": 2029470,
			"x": -0.00804710481315851,
			"y": 0.366666883230209,
			"z": 1.47775042057037
		},
		{
			"ts": 2029501,
			"x": -0.0394475981593132,
			"y": 0.386648625135422,
			"z": 1.49387955665588
		},
		{
			"ts": 2029537,
			"x": -0.0419749841094017,
			"y": 0.385367780923843,
			"z": 1.4950909614563
		},
		{
			"ts": 2029569,
			"x": -0.0741269439458847,
			"y": 0.401300430297852,
			"z": 1.51072692871094
		},
		{
			"ts": 2029602,
			"x": -0.0403761975467205,
			"y": 0.359733372926712,
			"z": 1.4936535358429
		},
		{
			"ts": 2029633,
			"x": -0.0689974054694176,
			"y": 0.406220436096191,
			"z": 1.5087503194809
		},
		{
			"ts": 2029669,
			"x": -0.0199037492275238,
			"y": 0.361020505428314,
			"z": 1.48400461673737
		},
		{
			"ts": 2029701,
			"x": -0.0175983905792236,
			"y": 0.36135995388031,
			"z": 1.48323702812195
		},
		{
			"ts": 2029733,
			"x": -0.0104698315262794,
			"y": 0.435222715139389,
			"z": 1.48514235019684
		},
		{
			"ts": 2029765,
			"x": -0.001974917948246,
			"y": 0.436990052461624,
			"z": 1.48100757598877
		},
		{
			"ts": 2029797,
			"x": 0.0116164796054363,
			"y": 0.439559042453766,
			"z": 1.47402381896973
		},
		{
			"ts": 2029833,
			"x": 0.0367301926016808,
			"y": 0.447242259979248,
			"z": 1.46278607845306
		},
		{
			"ts": 2029865,
			"x": 0.076268807053566,
			"y": 0.419792771339417,
			"z": 1.44996309280396
		},
		{
			"ts": 2029901,
			"x": 0.0893806740641594,
			"y": 0.427033305168152,
			"z": 1.44583487510681
		},
		{
			"ts": 2029933,
			"x": 0.116923615336418,
			"y": 0.429393738508224,
			"z": 1.43614017963409
		},
		{
			"ts": 2029969,
			"x": 0.131272032856941,
			"y": 0.427862703800201,
			"z": 1.4295175075531
		},
		{
			"ts": 2030001,
			"x": 0.145761087536812,
			"y": 0.419231355190277,
			"z": 1.42281830310822
		},
		{
			"ts": 2030033,
			"x": 0.157443195581436,
			"y": 0.411750197410584,
			"z": 1.41778957843781
		},
		{
			"ts": 2030069,
			"x": 0.164737194776535,
			"y": 0.408734560012817,
			"z": 1.41457557678223
		},
		{
			"ts": 2030105,
			"x": 0.167121648788452,
			"y": 0.404326498508453,
			"z": 1.41346216201782
		},
		{
			"ts": 2030137,
			"x": 0.168034508824348,
			"y": 0.400777995586395,
			"z": 1.41304755210876
		},
		{
			"ts": 2030170,
			"x": 0.16808120906353,
			"y": 0.400266706943512,
			"z": 1.41309940814972
		},
		{
			"ts": 2030201,
			"x": 0.167134076356888,
			"y": 0.399782925844193,
			"z": 1.41349315643311
		},
		{
			"ts": 2030233,
			"x": 0.163254484534264,
			"y": 0.401516944169998,
			"z": 1.41541075706482
		},
		{
			"ts": 2030269,
			"x": 0.150637954473495,
			"y": 0.41514179110527,
			"z": 1.42140686511993
		},
		{
			"ts": 2030301,
			"x": 0.133302122354507,
			"y": 0.420497477054596,
			"z": 1.43068182468414
		},
		{
			"ts": 2030333,
			"x": 0.108421877026558,
			"y": 0.428427159786224,
			"z": 1.44052517414093
		},
		{
			"ts": 2030365,
			"x": 0.0868690833449364,
			"y": 0.422227382659912,
			"z": 1.44848537445068
		},
		{
			"ts": 2030397,
			"x": 0.0613671019673347,
			"y": 0.382596522569656,
			"z": 1.45171904563904
		},
		{
			"ts": 2030433,
			"x": 0.0324040502309799,
			"y": 0.422242701053619,
			"z": 1.46768391132355
		},
		{
			"ts": 2030466,
			"x": 0.0100731328129768,
			"y": 0.433448076248169,
			"z": 1.48538267612457
		},
		{
			"ts": 2030497,
			"x": 0.00591074675321579,
			"y": 0.43380019068718,
			"z": 1.4873583316803
		},
		{
			"ts": 2030529,
			"x": -0.00410050805658102,
			"y": 0.360980361700058,
			"z": 1.48086071014404
		},
		{
			"ts": 2030561,
			"x": -0.00829188153147697,
			"y": 0.361756980419159,
			"z": 1.48314607143402
		},
		{
			"ts": 2030597,
			"x": -0.010845921933651,
			"y": 0.360047698020935,
			"z": 1.48418641090393
		},
		{
			"ts": 2030629,
			"x": -0.0122917667031288,
			"y": 0.35914745926857,
			"z": 1.48477756977081
		},
		{
			"ts": 2030661,
			"x": -0.0126058831810951,
			"y": 0.358969211578369,
			"z": 1.48501074314117
		},
		{
			"ts": 2030697,
			"x": -0.0119974985718727,
			"y": 0.359911233186722,
			"z": 1.48507046699524
		},
		{
			"ts": 2030733,
			"x": -0.00536161661148071,
			"y": 0.363970279693604,
			"z": 1.48194694519043
		},
		{
			"ts": 2030765,
			"x": 0.00731103122234344,
			"y": 0.438373893499374,
			"z": 1.4858523607254
		},
		{
			"ts": 2030797,
			"x": 0.0124796591699123,
			"y": 0.438823699951172,
			"z": 1.48182559013367
		},
		{
			"ts": 2030833,
			"x": 0.0339807793498039,
			"y": 0.445321381092072,
			"z": 1.46969270706177
		},
		{
			"ts": 2030865,
			"x": 0.0711013376712799,
			"y": 0.419675350189209,
			"z": 1.4516533613205
		},
		{
			"ts": 2030901,
			"x": 0.0854167342185974,
			"y": 0.427061796188354,
			"z": 1.44685471057892
		},
		{
			"ts": 2030933,
			"x": 0.114346124231815,
			"y": 0.432246118783951,
			"z": 1.43533802032471
		},
		{
			"ts": 2030969,
			"x": 0.131530359387398,
			"y": 0.42716121673584,
			"z": 1.42730295658112
		},
		{
			"ts": 2031001,
			"x": 0.150093674659729,
			"y": 0.420931905508041,
			"z": 1.41989767551422
		},
		{
			"ts": 2031033,
			"x": 0.166678354144096,
			"y": 0.413805454969406,
			"z": 1.41362535953522
		},
		{
			"ts": 2031069,
			"x": 0.172198057174683,
			"y": 0.410518884658813,
			"z": 1.41166508197784
		},
		{
			"ts": 2031105,
			"x": 0.180258110165596,
			"y": 0.404741108417511,
			"z": 1.40796637535095
		},
		{
			"ts": 2031137,
			"x": 0.183630347251892,
			"y": 0.400499641895294,
			"z": 1.40666353702545
		},
		{
			"ts": 2031169,
			"x": 0.185151278972626,
			"y": 0.398404359817505,
			"z": 1.40623736381531
		},
		{
			"ts": 2031201,
			"x": 0.185540318489075,
			"y": 0.397549837827683,
			"z": 1.40651273727417
		},
		{
			"ts": 2031233,
			"x": 0.185287803411484,
			"y": 0.397157669067383,
			"z": 1.40703892707825
		},
		{
			"ts": 2031269,
			"x": 0.183144569396973,
			"y": 0.39855033159256,
			"z": 1.40902054309845
		},
		{
			"ts": 2031301,
			"x": 0.174315541982651,
			"y": 0.405632495880127,
			"z": 1.41437339782715
		},
		{
			"ts": 2031333,
			"x": 0.158088028430939,
			"y": 0.413704991340637,
			"z": 1.42170464992523
		},
		{
			"ts": 2031366,
			"x": 0.137974053621292,
			"y": 0.426113396883011,
			"z": 1.43113374710083
		},
		{
			"ts": 2031398,
			"x": 0.112899236381054,
			"y": 0.430748254060745,
			"z": 1.44044530391693
		},
		{
			"ts": 2031433,
			"x": 0.0846752524375916,
			"y": 0.424489557743073,
			"z": 1.44840824604034
		},
		{
			"ts": 2031465,
			"x": 0.0609677769243717,
			"y": 0.42776882648468,
			"z": 1.45508980751038
		},
		{
			"ts": 2031497,
			"x": 0.0205216556787491,
			"y": 0.439537346363068,
			"z": 1.47217786312103
		},
		{
			"ts": 2031529,
			"x": 0.0110373273491859,
			"y": 0.419463098049164,
			"z": 1.47273886203766
		},
		{
			"ts": 2031561,
			"x": 0.00757627934217453,
			"y": 0.368271231651306,
			"z": 1.46984946727753
		},
		{
			"ts": 2031597,
			"x": -0.000380910933017731,
			"y": 0.364533662796021,
			"z": 1.47410869598389
		},
		{
			"ts": 2031629,
			"x": -0.00725190341472626,
			"y": 0.360482931137085,
			"z": 1.47674667835236
		},
		{
			"ts": 2031665,
			"x": -0.0131965130567551,
			"y": 0.356927394866943,
			"z": 1.47951304912567
		},
		{
			"ts": 2031697,
			"x": -0.0154182761907578,
			"y": 0.355103611946106,
			"z": 1.48048627376556
		},
		{
			"ts": 2031733,
			"x": -0.015611819922924,
			"y": 0.355199217796326,
			"z": 1.48063230514526
		},
		{
			"ts": 2031765,
			"x": -0.015401192009449,
			"y": 0.355512797832489,
			"z": 1.48059713840485
		},
		{
			"ts": 2031801,
			"x": -0.0102438405156136,
			"y": 0.359439820051193,
			"z": 1.47790443897247
		},
		{
			"ts": 2031833,
			"x": 0.0115059884265065,
			"y": 0.382499694824219,
			"z": 1.46878743171692
		},
		{
			"ts": 2031869,
			"x": 0.0170725286006927,
			"y": 0.442646503448486,
			"z": 1.4641284942627
		},
		{
			"ts": 2031901,
			"x": 0.0472965240478516,
			"y": 0.431195139884949,
			"z": 1.44839060306549
		},
		{
			"ts": 2031937,
			"x": 0.0615127831697464,
			"y": 0.426483571529388,
			"z": 1.44416058063507
		},
		{
			"ts": 2031969,
			"x": 0.0896680727601051,
			"y": 0.430588096380234,
			"z": 1.43319952487946
		},
		{
			"ts": 2032001,
			"x": 0.106428220868111,
			"y": 0.425077736377716,
			"z": 1.42684829235077
		},
		{
			"ts": 2032033,
			"x": 0.13330203294754,
			"y": 0.431572884321213,
			"z": 1.41501998901367
		},
		{
			"ts": 2032065,
			"x": 0.146402612328529,
			"y": 0.425366818904877,
			"z": 1.40996766090393
		},
		{
			"ts": 2032101,
			"x": 0.156503319740295,
			"y": 0.419620841741562,
			"z": 1.40598905086517
		},
		{
			"ts": 2032133,
			"x": 0.163440376520157,
			"y": 0.413612097501755,
			"z": 1.40306663513184
		},
		{
			"ts": 2032165,
			"x": 0.166563898324966,
			"y": 0.407549381256104,
			"z": 1.40216457843781
		},
		{
			"ts": 2032197,
			"x": 0.167917460203171,
			"y": 0.405989736318588,
			"z": 1.40160715579987
		},
		{
			"ts": 2032229,
			"x": 0.167835935950279,
			"y": 0.405155152082443,
			"z": 1.40186762809753
		},
		{
			"ts": 2032265,
			"x": 0.167462676763535,
			"y": 0.40648028254509,
			"z": 1.40250015258789
		},
		{
			"ts": 2032302,
			"x": 0.161853209137917,
			"y": 0.410697460174561,
			"z": 1.40610718727112
		},
		{
			"ts": 2032333,
			"x": 0.149047747254372,
			"y": 0.418491750955582,
			"z": 1.4140031337738
		},
		{
			"ts": 2032365,
			"x": 0.121699437499046,
			"y": 0.421745479106903,
			"z": 1.42601549625397
		},
		{
			"ts": 2032401,
			"x": 0.105009511113167,
			"y": 0.426741242408752,
			"z": 1.43412816524506
		},
		{
			"ts": 2032437,
			"x": 0.0789835155010223,
			"y": 0.422377645969391,
			"z": 1.44378232955933
		},
		{
			"ts": 2032469,
			"x": 0.0389060191810131,
			"y": 0.456756114959717,
			"z": 1.46027076244354
		},
		{
			"ts": 2032501,
			"x": 0.0227919965982437,
			"y": 0.448007673025131,
			"z": 1.46768927574158
		},
		{
			"ts": 2032533,
			"x": 0.00581995397806168,
			"y": 0.443174928426743,
			"z": 1.47578430175781
		},
		{
			"ts": 2032566,
			"x": -0.0133992619812489,
			"y": 0.42467200756073,
			"z": 1.47990715503693
		},
		{
			"ts": 2032601,
			"x": -0.00831565260887146,
			"y": 0.368334054946899,
			"z": 1.47500932216644
		},
		{
			"ts": 2032633,
			"x": -0.0135097727179527,
			"y": 0.368445187807083,
			"z": 1.47685122489929
		},
		{
			"ts": 2032665,
			"x": -0.0153440907597542,
			"y": 0.366153419017792,
			"z": 1.47714102268219
		},
		{
			"ts": 2032697,
			"x": -0.0168080031871796,
			"y": 0.364397406578064,
			"z": 1.47755634784698
		},
		{
			"ts": 2032729,
			"x": -0.017342746257782,
			"y": 0.364060521125793,
			"z": 1.47743654251099
		},
		{
			"ts": 2032765,
			"x": -0.0170464590191841,
			"y": 0.364592969417572,
			"z": 1.47716522216797
		},
		{
			"ts": 2032797,
			"x": -0.0129579529166222,
			"y": 0.367396175861359,
			"z": 1.47459232807159
		},
		{
			"ts": 2032829,
			"x": -0.00727719813585281,
			"y": 0.441655814647675,
			"z": 1.47559034824371
		},
		{
			"ts": 2032861,
			"x": 0.000278152525424957,
			"y": 0.444281935691834,
			"z": 1.4712747335434
		},
		{
			"ts": 2032893,
			"x": 0.0223867408931255,
			"y": 0.451169192790985,
			"z": 1.45946645736694
		},
		{
			"ts": 2032929,
			"x": 0.0672031342983246,
			"y": 0.42591866850853,
			"z": 1.44558346271515
		},
		{
			"ts": 2032961,
			"x": 0.0798851400613785,
			"y": 0.426122725009918,
			"z": 1.44229662418365
		},
		{
			"ts": 2032993,
			"x": 0.105928368866444,
			"y": 0.430587023496628,
			"z": 1.43252611160278
		},
		{
			"ts": 2033029,
			"x": 0.135254353284836,
			"y": 0.426750361919403,
			"z": 1.42314159870148
		},
		{
			"ts": 2033061,
			"x": 0.15184822678566,
			"y": 0.424264043569565,
			"z": 1.41614866256714
		},
		{
			"ts": 2033097,
			"x": 0.167313158512115,
			"y": 0.419637262821198,
			"z": 1.4105179309845
		},
		{
			"ts": 2033129,
			"x": 0.17362704873085,
			"y": 0.412537932395935,
			"z": 1.40826046466827
		},
		{
			"ts": 2033165,
			"x": 0.179506331682205,
			"y": 0.405684232711792,
			"z": 1.40562653541565
		},
		{
			"ts": 2033197,
			"x": 0.182024791836739,
			"y": 0.402897268533707,
			"z": 1.40485644340515
		},
		{
			"ts": 2033229,
			"x": 0.181239694356918,
			"y": 0.400126069784164,
			"z": 1.40566945075989
		},
		{
			"ts": 2033265,
			"x": 0.180601984262466,
			"y": 0.399919450283051,
			"z": 1.40647733211517
		},
		{
			"ts": 2033301,
			"x": 0.176571041345596,
			"y": 0.40335887670517,
			"z": 1.40885949134827
		},
		{
			"ts": 2033333,
			"x": 0.161318451166153,
			"y": 0.414215385913849,
			"z": 1.41680300235748
		},
		{
			"ts": 2033365,
			"x": 0.143258482217789,
			"y": 0.423947304487228,
			"z": 1.42570567131042
		},
		{
			"ts": 2033401,
			"x": 0.113761708140373,
			"y": 0.431316882371902,
			"z": 1.43931663036346
		},
		{
			"ts": 2033433,
			"x": 0.0914459601044655,
			"y": 0.429612219333649,
			"z": 1.44654965400696
		},
		{
			"ts": 2033465,
			"x": 0.0666167438030243,
			"y": 0.432870209217072,
			"z": 1.45500230789185
		},
		{
			"ts": 2033497,
			"x": 0.0244567133486271,
			"y": 0.447459310293198,
			"z": 1.47368896007538
		},
		{
			"ts": 2033529,
			"x": 0.0182270184159279,
			"y": 0.445690482854843,
			"z": 1.47712731361389
		},
		{
			"ts": 2033565,
			"x": -0.00717153400182724,
			"y": 0.436166226863861,
			"z": 1.48983371257782
		},
		{
			"ts": 2033597,
			"x": -0.0062221884727478,
			"y": 0.366206794977188,
			"z": 1.47674930095673
		},
		{
			"ts": 2033629,
			"x": -0.00829466432332993,
			"y": 0.364665687084198,
			"z": 1.47734570503235
		},
		{
			"ts": 2033661,
			"x": -0.0120098516345024,
			"y": 0.361915707588196,
			"z": 1.47864520549774
		},
		{
			"ts": 2033693,
			"x": -0.0136652663350105,
			"y": 0.360872656106949,
			"z": 1.47909843921661
		},
		{
			"ts": 2033729,
			"x": -0.0137745589017868,
			"y": 0.361122667789459,
			"z": 1.47903621196747
		},
		{
			"ts": 2033761,
			"x": -0.011662557721138,
			"y": 0.363651931285858,
			"z": 1.4774717092514
		},
		{
			"ts": 2033793,
			"x": -0.00161706656217575,
			"y": 0.37071567773819,
			"z": 1.47130787372589
		},
		{
			"ts": 2033825,
			"x": 0.00295800715684891,
			"y": 0.4436314702034,
			"z": 1.47222971916199
		},
		{
			"ts": 2033857,
			"x": 0.0129912719130516,
			"y": 0.44702023267746,
			"z": 1.46551156044006
		},
		{
			"ts": 2033893,
			"x": 0.0441829152405262,
			"y": 0.466161668300629,
			"z": 1.44976651668549
		},
		{
			"ts": 2033925,
			"x": 0.0833586603403091,
			"y": 0.429635912179947,
			"z": 1.4379950761795
		},
		{
			"ts": 2033957,
			"x": 0.0957679748535156,
			"y": 0.433976650238037,
			"z": 1.43195688724518
		},
		{
			"ts": 2033993,
			"x": 0.126847177743912,
			"y": 0.438667446374893,
			"z": 1.41775834560394
		},
		{
			"ts": 2034029,
			"x": 0.141414776444435,
			"y": 0.428539395332336,
			"z": 1.41151988506317
		},
		{
			"ts": 2034061,
			"x": 0.157913684844971,
			"y": 0.424989461898804,
			"z": 1.40290260314941
		},
		{
			"ts": 2034097,
			"x": 0.166713148355484,
			"y": 0.417723119258881,
			"z": 1.3984522819519
		},
		{
			"ts": 2034129,
			"x": 0.171823054552078,
			"y": 0.413426011800766,
			"z": 1.39546072483063
		},
		{
			"ts": 2034161,
			"x": 0.173994123935699,
			"y": 0.40953004360199,
			"z": 1.39410436153412
		},
		{
			"ts": 2034197,
			"x": 0.174088388681412,
			"y": 0.406740307807922,
			"z": 1.39392018318176
		},
		{
			"ts": 2034233,
			"x": 0.173385351896286,
			"y": 0.406794846057892,
			"z": 1.3945140838623
		},
		{
			"ts": 2034265,
			"x": 0.168822690844536,
			"y": 0.410561919212341,
			"z": 1.39688313007355
		},
		{
			"ts": 2034297,
			"x": 0.155743345618248,
			"y": 0.421086549758911,
			"z": 1.40458273887634
		},
		{
			"ts": 2034333,
			"x": 0.137372851371765,
			"y": 0.431037366390228,
			"z": 1.41376519203186
		},
		{
			"ts": 2034365,
			"x": 0.111451417207718,
			"y": 0.43196052312851,
			"z": 1.42584371566772
		},
		{
			"ts": 2034397,
			"x": 0.0879205614328384,
			"y": 0.429069548845291,
			"z": 1.435950756073
		},
		{
			"ts": 2034429,
			"x": 0.0655061006546021,
			"y": 0.430725812911987,
			"z": 1.44398868083954
		},
		{
			"ts": 2034461,
			"x": 0.027069129049778,
			"y": 0.454925984144211,
			"z": 1.46276307106018
		},
		{
			"ts": 2034497,
			"x": 0.0135696604847908,
			"y": 0.449857652187347,
			"z": 1.47265231609344
		},
		{
			"ts": 2034529,
			"x": -0.00594636797904968,
			"y": 0.442474246025085,
			"z": 1.48317158222198
		},
		{
			"ts": 2034561,
			"x": -0.00549211353063583,
			"y": 0.372067272663116,
			"z": 1.47291016578674
		},
		{
			"ts": 2034594,
			"x": -0.00681740790605545,
			"y": 0.370862126350403,
			"z": 1.47404325008392
		},
		{
			"ts": 2034625,
			"x": -0.0111976489424706,
			"y": 0.367357730865479,
			"z": 1.47645425796509
		},
		{
			"ts": 2034661,
			"x": -0.0146220996975899,
			"y": 0.364592432975769,
			"z": 1.47814440727234
		},
		{
			"ts": 2034693,
			"x": -0.0156022608280182,
			"y": 0.365365207195282,
			"z": 1.47886264324188
		},
		{
			"ts": 2034725,
			"x": -0.015106737613678,
			"y": 0.365945339202881,
			"z": 1.4788031578064
		},
		{
			"ts": 2034757,
			"x": -0.00721989572048187,
			"y": 0.370675265789032,
			"z": 1.47510361671448
		},
		{
			"ts": 2034789,
			"x": -0.00369010120630264,
			"y": 0.443383812904358,
			"z": 1.47689592838287
		},
		{
			"ts": 2034825,
			"x": 0.00466758757829666,
			"y": 0.446235448122025,
			"z": 1.47142803668976
		},
		{
			"ts": 2034857,
			"x": 0.0202012807130814,
			"y": 0.451790869235992,
			"z": 1.46107840538025
		},
		{
			"ts": 2034889,
			"x": 0.0511946305632591,
			"y": 0.457047402858734,
			"z": 1.44814383983612
		},
		{
			"ts": 2034925,
			"x": 0.0835644900798798,
			"y": 0.422493934631348,
			"z": 1.4347437620163
		},
		{
			"ts": 2034961,
			"x": 0.0942634344100952,
			"y": 0.426477193832397,
			"z": 1.42982339859009
		},
		{
			"ts": 2034993,
			"x": 0.122864276170731,
			"y": 0.43489933013916,
			"z": 1.41706573963165
		},
		{
			"ts": 2035025,
			"x": 0.133363530039787,
			"y": 0.431883484125137,
			"z": 1.4127995967865
		},
		{
			"ts": 2035061,
			"x": 0.145547926425934,
			"y": 0.417160183191299,
			"z": 1.40753555297852
		},
		{
			"ts": 2035093,
			"x": 0.149181932210922,
			"y": 0.40924409031868,
			"z": 1.40668141841888
		},
		{
			"ts": 2035129,
			"x": 0.150760531425476,
			"y": 0.405352890491486,
			"z": 1.40641093254089
		},
		{
			"ts": 2035161,
			"x": 0.151493489742279,
			"y": 0.403091669082642,
			"z": 1.40695357322693
		},
		{
			"ts": 2035197,
			"x": 0.151142597198486,
			"y": 0.402950763702393,
			"z": 1.40744948387146
		},
		{
			"ts": 2035229,
			"x": 0.146795272827148,
			"y": 0.407284528017044,
			"z": 1.41100239753723
		},
		{
			"ts": 2035261,
			"x": 0.133500963449478,
			"y": 0.419017195701599,
			"z": 1.41901862621307
		},
		{
			"ts": 2035298,
			"x": 0.11036591231823,
			"y": 0.426080882549286,
			"z": 1.43004333972931
		},
		{
			"ts": 2035333,
			"x": 0.0882953479886055,
			"y": 0.413985848426819,
			"z": 1.43909728527069
		},
		{
			"ts": 2035365,
			"x": 0.0605933964252472,
			"y": 0.421941548585892,
			"z": 1.44707751274109
		},
		{
			"ts": 2035397,
			"x": 0.0443599633872509,
			"y": 0.42108279466629,
			"z": 1.4534512758255
		},
		{
			"ts": 2035429,
			"x": 0.00857251137495041,
			"y": 0.435070008039474,
			"z": 1.4803478717804
		},
		{
			"ts": 2035461,
			"x": 0.0036562904715538,
			"y": 0.437194913625717,
			"z": 1.48199582099915
		},
		{
			"ts": 2035497,
			"x": -0.00303471833467484,
			"y": 0.365142703056335,
			"z": 1.46597349643707
		},
		{
			"ts": 2035529,
			"x": -0.00694456696510315,
			"y": 0.364022970199585,
			"z": 1.46685564517975
		},
		{
			"ts": 2035561,
			"x": -0.0184313580393791,
			"y": 0.356993317604065,
			"z": 1.46994233131409
		},
		{
			"ts": 2035593,
			"x": -0.0270561054348946,
			"y": 0.350694060325623,
			"z": 1.47192847728729
		},
		{
			"ts": 2035625,
			"x": -0.0325813814997673,
			"y": 0.344749629497528,
			"z": 1.47246289253235
		},
		{
			"ts": 2035661,
			"x": -0.0331924855709076,
			"y": 0.344368875026703,
			"z": 1.47252523899078
		},
		{
			"ts": 2035693,
			"x": -0.0330753922462463,
			"y": 0.344830989837646,
			"z": 1.47231841087341
		},
		{
			"ts": 2035725,
			"x": -0.0295418053865433,
			"y": 0.347870588302612,
			"z": 1.47102558612823
		},
		{
			"ts": 2035757,
			"x": -0.0209606438875198,
			"y": 0.354780673980713,
			"z": 1.46740651130676
		},
		{
			"ts": 2035789,
			"x": -0.00144851300865412,
			"y": 0.379558056592941,
			"z": 1.46112906932831
		},
		{
			"ts": 2035825,
			"x": 7.87600874900818e-05,
			"y": 0.435792624950409,
			"z": 1.46505630016327
		},
		{
			"ts": 2035857,
			"x": 0.00880812108516693,
			"y": 0.440966069698334,
			"z": 1.45986819267273
		},
		{
			"ts": 2035889,
			"x": 0.0525163263082504,
			"y": 0.408510625362396,
			"z": 1.43734014034271
		},
		{
			"ts": 2035926,
			"x": 0.0634977966547012,
			"y": 0.411196202039719,
			"z": 1.43372511863708
		},
		{
			"ts": 2035961,
			"x": 0.0840565860271454,
			"y": 0.426273852586746,
			"z": 1.42658722400665
		},
		{
			"ts": 2035993,
			"x": 0.0955575853586197,
			"y": 0.426246404647827,
			"z": 1.42277812957764
		},
		{
			"ts": 2036029,
			"x": 0.108718037605286,
			"y": 0.424926787614822,
			"z": 1.41824615001678
		},
		{
			"ts": 2036061,
			"x": 0.11789146065712,
			"y": 0.418649852275848,
			"z": 1.41461455821991
		},
		{
			"ts": 2036097,
			"x": 0.121149763464928,
			"y": 0.415625423192978,
			"z": 1.41303777694702
		},
		{
			"ts": 2036129,
			"x": 0.122413657605648,
			"y": 0.414086699485779,
			"z": 1.41266167163849
		},
		{
			"ts": 2036165,
			"x": 0.122332036495209,
			"y": 0.414102703332901,
			"z": 1.41276121139526
		},
		{
			"ts": 2036197,
			"x": 0.11748318374157,
			"y": 0.412771552801132,
			"z": 1.4152717590332
		},
		{
			"ts": 2036229,
			"x": 0.106444999575615,
			"y": 0.419843554496765,
			"z": 1.41976678371429
		},
		{
			"ts": 2036261,
			"x": 0.0864503234624863,
			"y": 0.416246056556702,
			"z": 1.42701685428619
		},
		{
			"ts": 2036293,
			"x": 0.0597606189548969,
			"y": 0.407015889883041,
			"z": 1.43483793735504
		},
		{
			"ts": 2036329,
			"x": 0.0444867722690105,
			"y": 0.40854412317276,
			"z": 1.44018483161926
		},
		{
			"ts": 2036361,
			"x": 0.00103843212127686,
			"y": 0.446923136711121,
			"z": 1.46251368522644
		},
		{
			"ts": 2036393,
			"x": -0.00752200232818723,
			"y": 0.417990207672119,
			"z": 1.46454882621765
		},
		{
			"ts": 2036425,
			"x": -0.0189241990447044,
			"y": 0.373397022485733,
			"z": 1.4574373960495
		},
		{
			"ts": 2036457,
			"x": -0.0244732946157455,
			"y": 0.373375773429871,
			"z": 1.45997357368469
		},
		{
			"ts": 2036493,
			"x": -0.0393685847520828,
			"y": 0.367187052965164,
			"z": 1.4652453660965
		},
		{
			"ts": 2036525,
			"x": -0.0586056336760521,
			"y": 0.35659059882164,
			"z": 1.46301281452179
		},
		{
			"ts": 2036561,
			"x": -0.0563600473105907,
			"y": 0.352206945419312,
			"z": 1.46265876293182
		},
		{
			"ts": 2036593,
			"x": -0.0553826950490475,
			"y": 0.350359380245209,
			"z": 1.46256577968597
		},
		{
			"ts": 2036629,
			"x": -0.0566110052168369,
			"y": 0.352899730205536,
			"z": 1.46278512477875
		},
		{
			"ts": 2036661,
			"x": -0.0431650280952454,
			"y": 0.36192587018013,
			"z": 1.46823728084564
		},
		{
			"ts": 2036693,
			"x": -0.0378950797021389,
			"y": 0.365684568881989,
			"z": 1.46657598018646
		},
		{
			"ts": 2036725,
			"x": -0.0247978456318378,
			"y": 0.373542249202728,
			"z": 1.46226942539215
		},
		{
			"ts": 2036757,
			"x": -0.00920219719409943,
			"y": 0.450071156024933,
			"z": 1.46972417831421
		},
		{
			"ts": 2036793,
			"x": 0.0269375815987587,
			"y": 0.424916505813599,
			"z": 1.45216250419617
		},
		{
			"ts": 2036826,
			"x": 0.0391766428947449,
			"y": 0.428994953632355,
			"z": 1.44927942752838
		},
		{
			"ts": 2036858,
			"x": 0.0758525729179382,
			"y": 0.436083883047104,
			"z": 1.443434715271
		},
		{
			"ts": 2036889,
			"x": 0.0946423262357712,
			"y": 0.435909330844879,
			"z": 1.44001495838165
		},
		{
			"ts": 2036921,
			"x": 0.118612766265869,
			"y": 0.433434665203094,
			"z": 1.43475115299225
		},
		{
			"ts": 2036957,
			"x": 0.136137247085571,
			"y": 0.431800603866577,
			"z": 1.42913126945496
		},
		{
			"ts": 2036989,
			"x": 0.152014911174774,
			"y": 0.429600775241852,
			"z": 1.42377364635468
		},
		{
			"ts": 2037021,
			"x": 0.162016302347183,
			"y": 0.428936898708344,
			"z": 1.42037534713745
		},
		{
			"ts": 2037057,
			"x": 0.166416302323341,
			"y": 0.423320949077606,
			"z": 1.41923308372498
		},
		{
			"ts": 2037089,
			"x": 0.168967947363853,
			"y": 0.417910277843475,
			"z": 1.4190399646759
		},
		{
			"ts": 2037125,
			"x": 0.169725328683853,
			"y": 0.417021572589874,
			"z": 1.41922855377197
		},
		{
			"ts": 2037157,
			"x": 0.168822929263115,
			"y": 0.415345430374146,
			"z": 1.42092108726501
		},
		{
			"ts": 2037193,
			"x": 0.166205614805222,
			"y": 0.414725363254547,
			"z": 1.4238805770874
		},
		{
			"ts": 2037225,
			"x": 0.156317129731178,
			"y": 0.41978645324707,
			"z": 1.43238389492035
		},
		{
			"ts": 2037257,
			"x": 0.132222861051559,
			"y": 0.407613426446915,
			"z": 1.44390153884888
		},
		{
			"ts": 2037294,
			"x": 0.111984774470329,
			"y": 0.42471718788147,
			"z": 1.45483696460724
		},
		{
			"ts": 2037329,
			"x": 0.0919026583433151,
			"y": 0.430031776428223,
			"z": 1.46305572986603
		},
		{
			"ts": 2037361,
			"x": 0.0634843409061432,
			"y": 0.43008553981781,
			"z": 1.47347593307495
		},
		{
			"ts": 2037393,
			"x": 0.0326016396284103,
			"y": 0.437537789344788,
			"z": 1.48848366737366
		},
		{
			"ts": 2037429,
			"x": 0.0282819829881191,
			"y": 0.36613267660141,
			"z": 1.47699379920959
		},
		{
			"ts": 2037461,
			"x": 0.018992006778717,
			"y": 0.360309600830078,
			"z": 1.4802029132843
		},
		{
			"ts": 2037493,
			"x": 0.00466322153806686,
			"y": 0.351903319358826,
			"z": 1.48368084430695
		},
		{
			"ts": 2037525,
			"x": -0.00985202193260193,
			"y": 0.340073525905609,
			"z": 1.47318232059479
		},
		{
			"ts": 2037557,
			"x": -0.00838407129049301,
			"y": 0.33872377872467,
			"z": 1.4736111164093
		},
		{
			"ts": 2037593,
			"x": -0.00704135745763779,
			"y": 0.338318049907684,
			"z": 1.47365272045135
		},
		{
			"ts": 2037625,
			"x": -0.00931495148688555,
			"y": 0.34651780128479,
			"z": 1.47987985610962
		},
		{
			"ts": 2037657,
			"x": -0.00744134560227394,
			"y": 0.351667076349258,
			"z": 1.47823894023895
		},
		{
			"ts": 2037689,
			"x": 0.0068634171038866,
			"y": 0.354738056659698,
			"z": 1.46998012065887
		},
		{
			"ts": 2037721,
			"x": 0.0223415866494179,
			"y": 0.428306221961975,
			"z": 1.47064983844757
		},
		{
			"ts": 2037757,
			"x": 0.0610197968780994,
			"y": 0.367206245660782,
			"z": 1.44478404521942
		},
		{
			"ts": 2037789,
			"x": 0.0692010000348091,
			"y": 0.415271729230881,
			"z": 1.44486689567566
		},
		{
			"ts": 2037825,
			"x": 0.0849547162652016,
			"y": 0.417225360870361,
			"z": 1.43900787830353
		},
		{
			"ts": 2037857,
			"x": 0.119893044233322,
			"y": 0.423205077648163,
			"z": 1.4264212846756
		},
		{
			"ts": 2037893,
			"x": 0.137368097901344,
			"y": 0.42229300737381,
			"z": 1.4194769859314
		},
		{
			"ts": 2037925,
			"x": 0.150689452886581,
			"y": 0.414173781871796,
			"z": 1.4139438867569
		},
		{
			"ts": 2037957,
			"x": 0.160225003957748,
			"y": 0.41073751449585,
			"z": 1.41056311130524
		},
		{
			"ts": 2037993,
			"x": 0.16437178850174,
			"y": 0.40448659658432,
			"z": 1.41016483306885
		},
		{
			"ts": 2038029,
			"x": 0.16595795750618,
			"y": 0.401293933391571,
			"z": 1.41059601306915
		},
		{
			"ts": 2038061,
			"x": 0.166283637285233,
			"y": 0.400031566619873,
			"z": 1.41133368015289
		},
		{
			"ts": 2038097,
			"x": 0.163908183574677,
			"y": 0.397877395153046,
			"z": 1.41422939300537
		},
		{
			"ts": 2038129,
			"x": 0.160037949681282,
			"y": 0.39828085899353,
			"z": 1.41768085956573
		},
		{
			"ts": 2038161,
			"x": 0.136987447738647,
			"y": 0.395499408245087,
			"z": 1.43034851551056
		},
		{
			"ts": 2038193,
			"x": 0.122932903468609,
			"y": 0.404211699962616,
			"z": 1.43793439865112
		},
		{
			"ts": 2038225,
			"x": 0.0969391465187073,
			"y": 0.415400743484497,
			"z": 1.44787442684174
		},
		{
			"ts": 2038257,
			"x": 0.0714566335082054,
			"y": 0.413434863090515,
			"z": 1.45603477954865
		},
		{
			"ts": 2038289,
			"x": 0.0341880284249783,
			"y": 0.434595376253128,
			"z": 1.47706925868988
		},
		{
			"ts": 2038325,
			"x": 0.0164995715022087,
			"y": 0.429735064506531,
			"z": 1.4873104095459
		},
		{
			"ts": 2038357,
			"x": -0.0016585395205766,
			"y": 0.361316502094269,
			"z": 1.47825348377228
		},
		{
			"ts": 2038389,
			"x": -0.0134026231244206,
			"y": 0.362368762493134,
			"z": 1.48416817188263
		},
		{
			"ts": 2038421,
			"x": -0.0602567419409752,
			"y": 0.393015384674072,
			"z": 1.51069319248199
		},
		{
			"ts": 2038453,
			"x": -0.0364595949649811,
			"y": 0.332137912511826,
			"z": 1.49080836772919
		},
		{
			"ts": 2038489,
			"x": -0.0358734130859375,
			"y": 0.331698298454285,
			"z": 1.49048840999603
		},
		{
			"ts": 2038521,
			"x": -0.0313970446586609,
			"y": 0.334847956895828,
			"z": 1.48820376396179
		},
		{
			"ts": 2038557,
			"x": -0.0256601311266422,
			"y": 0.344805777072906,
			"z": 1.48445796966553
		},
		{
			"ts": 2038589,
			"x": -0.011332469061017,
			"y": 0.353492558002472,
			"z": 1.47485709190369
		},
		{
			"ts": 2038625,
			"x": 0.0137858027592301,
			"y": 0.376820057630539,
			"z": 1.4608987569809
		},
		{
			"ts": 2038657,
			"x": 0.0173953846096992,
			"y": 0.433372884988785,
			"z": 1.45151054859161
		},
		{
			"ts": 2038689,
			"x": 0.0515564531087875,
			"y": 0.419092565774918,
			"z": 1.43415522575378
		},
		{
			"ts": 2038725,
			"x": 0.0691212266683578,
			"y": 0.419053852558136,
			"z": 1.42606496810913
		},
		{
			"ts": 2038761,
			"x": 0.101312145590782,
			"y": 0.424641609191895,
			"z": 1.41077625751495
		},
		{
			"ts": 2038793,
			"x": 0.134248659014702,
			"y": 0.42929071187973,
			"z": 1.39467906951904
		},
		{
			"ts": 2038825,
			"x": 0.146830379962921,
			"y": 0.423519670963287,
			"z": 1.3881117105484
		},
		{
			"ts": 2038857,
			"x": 0.160444959998131,
			"y": 0.410497903823853,
			"z": 1.38074696063995
		},
		{
			"ts": 2038889,
			"x": 0.169360995292664,
			"y": 0.40876317024231,
			"z": 1.37608873844147
		},
		{
			"ts": 2038925,
			"x": 0.174605309963226,
			"y": 0.404759883880615,
			"z": 1.3735613822937
		},
		{
			"ts": 2038957,
			"x": 0.176695078611374,
			"y": 0.402342557907104,
			"z": 1.37287366390228
		},
		{
			"ts": 2038989,
			"x": 0.177334576845169,
			"y": 0.401029139757156,
			"z": 1.373051404953
		},
		{
			"ts": 2039021,
			"x": 0.176891148090363,
			"y": 0.400319069623947,
			"z": 1.37411081790924
		},
		{
			"ts": 2039053,
			"x": 0.175343483686447,
			"y": 0.401595115661621,
			"z": 1.37617015838623
		},
		{
			"ts": 2039089,
			"x": 0.165338188409805,
			"y": 0.405069559812546,
			"z": 1.38358104228973
		},
		{
			"ts": 2039121,
			"x": 0.150881886482239,
			"y": 0.417749404907227,
			"z": 1.39308619499207
		},
		{
			"ts": 2039153,
			"x": 0.129497826099396,
			"y": 0.424181044101715,
			"z": 1.40406787395477
		},
		{
			"ts": 2039185,
			"x": 0.107240051031113,
			"y": 0.422069847583771,
			"z": 1.41497266292572
		},
		{
			"ts": 2039217,
			"x": 0.0816544368863106,
			"y": 0.417340517044067,
			"z": 1.4245411157608
		},
		{
			"ts": 2039253,
			"x": 0.0615069568157196,
			"y": 0.412765145301819,
			"z": 1.43201720714569
		},
		{
			"ts": 2039285,
			"x": 0.0184540450572968,
			"y": 0.445641219615936,
			"z": 1.45161819458008
		},
		{
			"ts": 2039317,
			"x": 0.0133303180336952,
			"y": 0.443468034267426,
			"z": 1.45641875267029
		},
		{
			"ts": 2039353,
			"x": 0.00341257941909134,
			"y": 0.378089874982834,
			"z": 1.45428287982941
		},
		{
			"ts": 2039389,
			"x": -0.00441953539848328,
			"y": 0.365830063819885,
			"z": 1.45546615123749
		},
		{
			"ts": 2039421,
			"x": -0.0112159177660942,
			"y": 0.363363325595856,
			"z": 1.45743441581726
		},
		{
			"ts": 2039453,
			"x": -0.0151772201061249,
			"y": 0.360101372003555,
			"z": 1.45909333229065
		},
		{
			"ts": 2039489,
			"x": -0.0169016569852829,
			"y": 0.358361512422562,
			"z": 1.45942544937134
		},
		{
			"ts": 2039521,
			"x": -0.0175312459468842,
			"y": 0.358741074800491,
			"z": 1.45948994159698
		},
		{
			"ts": 2039557,
			"x": -0.0164230391383171,
			"y": 0.359386682510376,
			"z": 1.45858347415924
		},
		{
			"ts": 2039589,
			"x": -0.00552478432655334,
			"y": 0.365666031837463,
			"z": 1.45080006122589
		},
		{
			"ts": 2039625,
			"x": 0.00590887665748596,
			"y": 0.440564423799515,
			"z": 1.44823956489563
		},
		{
			"ts": 2039657,
			"x": 0.0143041536211967,
			"y": 0.440947294235229,
			"z": 1.44321608543396
		},
		{
			"ts": 2039689,
			"x": 0.0523680821061134,
			"y": 0.422856658697128,
			"z": 1.42181468009949
		},
		{
			"ts": 2039725,
			"x": 0.0679247677326202,
			"y": 0.419998407363892,
			"z": 1.41642510890961
		},
		{
			"ts": 2039761,
			"x": 0.0954741612076759,
			"y": 0.423136174678802,
			"z": 1.40442895889282
		},
		{
			"ts": 2039793,
			"x": 0.124529667198658,
			"y": 0.428074538707733,
			"z": 1.39214932918549
		},
		{
			"ts": 2039826,
			"x": 0.140051409602165,
			"y": 0.4249327480793,
			"z": 1.38393652439117
		},
		{
			"ts": 2039857,
			"x": 0.150456339120865,
			"y": 0.415784955024719,
			"z": 1.37836647033691
		},
		{
			"ts": 2039889,
			"x": 0.159019768238068,
			"y": 0.411863446235657,
			"z": 1.37414360046387
		},
		{
			"ts": 2039925,
			"x": 0.164188265800476,
			"y": 0.408768057823181,
			"z": 1.37117981910706
		},
		{
			"ts": 2039957,
			"x": 0.165608614683151,
			"y": 0.4057457447052,
			"z": 1.37078464031219
		},
		{
			"ts": 2039989,
			"x": 0.166332840919495,
			"y": 0.404890090227127,
			"z": 1.37063276767731
		},
		{
			"ts": 2040021,
			"x": 0.166174799203873,
			"y": 0.404775530099869,
			"z": 1.37084496021271
		},
		{
			"ts": 2040053,
			"x": 0.161904528737068,
			"y": 0.405470550060272,
			"z": 1.37478375434875
		},
		{
			"ts": 2040089,
			"x": 0.149045869708061,
			"y": 0.414979308843613,
			"z": 1.38529133796692
		},
		{
			"ts": 2040121,
			"x": 0.12719538807869,
			"y": 0.423013895750046,
			"z": 1.39777612686157
		},
		{
			"ts": 2040153,
			"x": 0.10406881570816,
			"y": 0.422464489936829,
			"z": 1.4114978313446
		},
		{
			"ts": 2040185,
			"x": 0.0776522904634476,
			"y": 0.417637050151825,
			"z": 1.423672914505
		},
		{
			"ts": 2040217,
			"x": 0.0548312775790691,
			"y": 0.415021121501923,
			"z": 1.43441390991211
		},
		{
			"ts": 2040253,
			"x": 0.0391013324260712,
			"y": 0.403426796197891,
			"z": 1.44295883178711
		},
		{
			"ts": 2040285,
			"x": 0.0251865517348051,
			"y": 0.389539062976837,
			"z": 1.45236802101135
		},
		{
			"ts": 2040321,
			"x": 0.00625692307949066,
			"y": 0.365930259227753,
			"z": 1.46022999286652
		},
		{
			"ts": 2040357,
			"x": -0.00656156986951828,
			"y": 0.358174204826355,
			"z": 1.46965420246124
		},
		{
			"ts": 2040389,
			"x": -0.0147792175412178,
			"y": 0.353507697582245,
			"z": 1.47560012340546
		},
		{
			"ts": 2040421,
			"x": -0.0210933834314346,
			"y": 0.346010148525238,
			"z": 1.48191678524017
		},
		{
			"ts": 2040457,
			"x": -0.0242298915982246,
			"y": 0.341600239276886,
			"z": 1.4854097366333
		},
		{
			"ts": 2040489,
			"x": -0.0248627960681915,
			"y": 0.339812070131302,
			"z": 1.48731315135956
		},
		{
			"ts": 2040525,
			"x": -0.0240801647305489,
			"y": 0.340341567993164,
			"z": 1.48841941356659
		},
		{
			"ts": 2040557,
			"x": -0.0211565680801868,
			"y": 0.34415602684021,
			"z": 1.48896420001984
		},
		{
			"ts": 2040593,
			"x": -0.00575709715485573,
			"y": 0.352114021778107,
			"z": 1.48362016677856
		},
		{
			"ts": 2040625,
			"x": 0.0155084431171417,
			"y": 0.357802271842957,
			"z": 1.47203755378723
		},
		{
			"ts": 2040657,
			"x": 0.026888694614172,
			"y": 0.427614241838455,
			"z": 1.47639942169189
		},
		{
			"ts": 2040689,
			"x": 0.0536034032702446,
			"y": 0.401380389928818,
			"z": 1.45032095909119
		},
		{
			"ts": 2040721,
			"x": 0.0673580914735794,
			"y": 0.408892750740051,
			"z": 1.44350183010101
		},
		{
			"ts": 2040753,
			"x": 0.100482054054737,
			"y": 0.409728497266769,
			"z": 1.42435479164124
		},
		{
			"ts": 2040785,
			"x": 0.136443585157394,
			"y": 0.41918095946312,
			"z": 1.40192902088165
		},
		{
			"ts": 2040821,
			"x": 0.165450692176819,
			"y": 0.415227711200714,
			"z": 1.38382613658905
		},
		{
			"ts": 2040853,
			"x": 0.183884993195534,
			"y": 0.397096157073975,
			"z": 1.36981666088104
		},
		{
			"ts": 2040889,
			"x": 0.200887814164162,
			"y": 0.378482013940811,
			"z": 1.35362040996552
		},
		{
			"ts": 2040921,
			"x": 0.220459789037704,
			"y": 0.354092448949814,
			"z": 1.33492624759674
		},
		{
			"ts": 2040957,
			"x": 0.223437801003456,
			"y": 0.308043122291565,
			"z": 1.3288608789444
		},
		{
			"ts": 2040989,
			"x": 0.22847692668438,
			"y": 0.293615072965622,
			"z": 1.32156908512115
		},
		{
			"ts": 2041021,
			"x": 0.22429396212101,
			"y": 0.250705420970917,
			"z": 1.31552994251251
		},
		{
			"ts": 2041053,
			"x": 0.22685107588768,
			"y": 0.245117664337158,
			"z": 1.30860900878906
		},
		{
			"ts": 2041085,
			"x": 0.228799507021904,
			"y": 0.234053701162338,
			"z": 1.2942818403244
		},
		{
			"ts": 2041121,
			"x": 0.206756323575974,
			"y": 0.194303125143051,
			"z": 1.29905760288239
		},
		{
			"ts": 2041153,
			"x": 0.201205521821976,
			"y": 0.175443634390831,
			"z": 1.28287029266357
		},
		{
			"ts": 2041185,
			"x": 0.190024062991142,
			"y": 0.160733580589294,
			"z": 1.28323781490326
		},
		{
			"ts": 2041217,
			"x": 0.146560296416283,
			"y": 0.0915335714817047,
			"z": 1.30883169174194
		},
		{
			"ts": 2041249,
			"x": 0.136607468128204,
			"y": 0.0816827863454819,
			"z": 1.30938839912415
		},
		{
			"ts": 2041285,
			"x": 0.119254887104034,
			"y": 0.0673792958259583,
			"z": 1.30377542972565
		},
		{
			"ts": 2041317,
			"x": 0.10239389538765,
			"y": 0.0552468821406364,
			"z": 1.29459428787231
		},
		{
			"ts": 2041349,
			"x": 0.0743783563375473,
			"y": 0.00293359905481339,
			"z": 1.30454933643341
		},
		{
			"ts": 2041385,
			"x": 0.0553187616169453,
			"y": 0.0157920457422733,
			"z": 1.26427316665649
		},
		{
			"ts": 2041417,
			"x": 0.0366960093379021,
			"y": 0.0133672878146172,
			"z": 1.23707139492035
		},
		{
			"ts": 2041453,
			"x": 0.0101282903924584,
			"y": -0.0160879865288734,
			"z": 1.24626183509827
		},
		{
			"ts": 2041485,
			"x": -0.013153089210391,
			"y": -0.0422267653048038,
			"z": 1.25854206085205
		},
		{
			"ts": 2041521,
			"x": -0.0380717813968658,
			"y": -0.073732852935791,
			"z": 1.24795973300934
		},
		{
			"ts": 2041553,
			"x": -0.0604415945708752,
			"y": -0.0677843987941742,
			"z": 1.19681632518768
		},
		{
			"ts": 2041585,
			"x": -0.0622323602437973,
			"y": -0.0705597400665283,
			"z": 1.22381782531738
		},
		{
			"ts": 2041621,
			"x": -0.0801867693662643,
			"y": -0.0940970927476883,
			"z": 1.27014672756195
		},
		{
			"ts": 2041657,
			"x": -0.105403125286102,
			"y": -0.0859928727149963,
			"z": 1.2399218082428
		}
	]
}
